 KPT            1  SPIN            1  KWEIGHT    1.0000000000000000     
     1   -24.329  2.00000
     2   -24.329  2.00000
     3   -24.328  2.00000
     4   -24.328  2.00000
     5   -24.328  2.00000
     6   -24.328  2.00000
     7   -24.193  2.00000
     8   -24.193  2.00000
     9   -24.193  2.00000
    10   -24.193  2.00000
    11   -24.193  2.00000
    12   -24.193  2.00000
    13   -24.193  2.00000
    14   -24.193  2.00000
    15   -24.193  2.00000
    16   -24.193  2.00000
    17   -24.193  2.00000
    18   -24.193  2.00000
    19   -24.121  2.00000
    20   -24.121  2.00000
    21   -24.121  2.00000
    22   -24.121  2.00000
    23   -24.120  2.00000
    24   -24.120  2.00000
    25   -22.709  2.00000
    26   -22.708  2.00000
    27   -22.708  2.00000
    28   -22.708  2.00000
    29   -22.708  2.00000
    30   -22.708  2.00000
    31   -22.560  2.00000
    32   -22.560  2.00000
    33   -22.560  2.00000
    34   -22.560  2.00000
    35   -22.559  2.00000
    36   -22.559  2.00000
    37   -22.559  2.00000
    38   -22.559  2.00000
    39   -22.559  2.00000
    40   -22.559  2.00000
    41   -22.559  2.00000
    42   -22.559  2.00000
    43   -22.491  2.00000
    44   -22.491  2.00000
    45   -22.491  2.00000
    46   -22.491  2.00000
    47   -22.490  2.00000
    48   -22.490  2.00000
    49   -22.261  2.00000
    50   -22.261  2.00000
    51   -22.261  2.00000
    52   -22.253  2.00000
    53   -22.253  2.00000
    54   -22.253  2.00000
    55   -22.225  2.00000
    56   -22.224  2.00000
    57   -22.224  2.00000
    58   -22.217  2.00000
    59   -22.216  2.00000
    60   -22.216  2.00000
    61   -19.878  2.00000
    62   -19.877  2.00000
    63   -19.876  2.00000
    64   -19.874  2.00000
    65   -19.874  2.00000
    66   -19.873  2.00000
    67   -19.707  2.00000
    68   -19.706  2.00000
    69   -19.706  2.00000
    70   -19.706  2.00000
    71   -19.706  2.00000
    72   -19.706  2.00000
    73   -19.706  2.00000
    74   -19.706  2.00000
    75   -19.275  2.00000
    76   -19.275  2.00000
    77   -19.275  2.00000
    78   -19.275  2.00000
    79   -19.274  2.00000
    80   -19.273  2.00000
    81   -19.273  2.00000
    82   -19.273  2.00000
    83   -19.273  2.00000
    84   -19.273  2.00000
    85   -19.273  2.00000
    86   -19.272  2.00000
    87   -19.272  2.00000
    88   -19.272  2.00000
    89   -19.272  2.00000
    90   -19.272  2.00000
    91   -18.829  2.00000
    92   -18.827  2.00000
    93   -18.827  2.00000
    94   -18.827  2.00000
    95   -18.825  2.00000
    96   -18.825  2.00000
    97   -18.825  2.00000
    98   -18.824  2.00000
    99   -18.263  2.00000
   100   -18.263  2.00000
   101   -18.261  2.00000
   102   -18.259  2.00000
   103   -18.258  2.00000
   104   -18.258  2.00000
   105   -17.944  2.00000
   106   -17.943  2.00000
   107   -17.943  2.00000
   108   -17.942  2.00000
   109   -17.942  2.00000
   110   -17.942  2.00000
   111   -17.756  2.00000
   112   -17.756  2.00000
   113   -17.755  2.00000
   114   -17.754  2.00000
   115   -17.754  2.00000
   116   -17.753  2.00000
   117   -17.753  2.00000
   118   -17.753  2.00000
   119   -17.751  2.00000
   120   -17.751  2.00000
   121   -17.751  2.00000
   122   -17.746  2.00000
   123   -17.746  2.00000
   124   -17.746  2.00000
   125   -17.745  2.00000
   126   -17.745  2.00000
   127   -17.744  2.00000
   128   -17.744  2.00000
   129   -17.744  2.00000
   130   -17.744  2.00000
   131   -17.743  2.00000
   132   -17.743  2.00000
   133   -16.926  2.00000
   134   -16.916  2.00000
   135   -16.916  2.00000
   136   -16.916  2.00000
   137   -16.909  2.00000
   138   -16.909  2.00000
   139   -16.909  2.00000
   140   -16.905  2.00000
   141   -16.791  2.00000
   142   -16.791  2.00000
   143   -16.791  2.00000
   144   -16.791  2.00000
   145   -16.791  2.00000
   146   -16.791  2.00000
   147   -16.791  2.00000
   148   -16.791  2.00000
   149   -16.791  2.00000
   150   -16.790  2.00000
   151   -16.790  2.00000
   152   -16.790  2.00000
   153   -16.790  2.00000
   154   -16.790  2.00000
   155   -16.790  2.00000
   156   -16.790  2.00000
   157   -16.777  2.00000
   158   -16.776  2.00000
   159   -16.776  2.00000
   160   -16.776  2.00000
   161   -16.776  2.00000
   162   -16.776  2.00000
   163   -16.776  2.00000
   164   -16.776  2.00000
   165   -16.310  2.00000
   166   -16.309  2.00000
   167   -16.305  2.00000
   168   -16.305  2.00000
   169   -16.305  2.00000
   170   -16.297  2.00000
   171   -16.297  2.00000
   172   -16.297  2.00000
   173   -16.297  2.00000
   174   -16.297  2.00000
   175   -16.296  2.00000
   176   -16.294  2.00000
   177   -16.294  2.00000
   178   -16.294  2.00000
   179   -16.293  2.00000
   180   -16.292  2.00000
   181   -15.368  2.00000
   182   -15.368  2.00000
   183   -15.366  2.00000
   184   -15.361  2.00000
   185   -15.361  2.00000
   186   -15.361  2.00000
   187   -15.352  2.00000
   188   -15.352  2.00000
   189   -15.351  2.00000
   190   -15.349  2.00000
   191   -15.346  2.00000
   192   -15.345  2.00000
   193   -14.696  2.00000
   194   -14.696  2.00000
   195   -14.695  2.00000
   196   -14.694  2.00000
   197   -14.693  2.00000
   198   -14.693  2.00000
   199   -14.357  2.00000
   200   -14.354  2.00000
   201   -14.344  2.00000
   202   -14.343  2.00000
   203   -14.341  2.00000
   204   -14.302  2.00000
   205   -14.301  2.00000
   206   -14.300  2.00000
   207   -14.300  2.00000
   208   -14.299  2.00000
   209   -14.298  2.00000
   210   -14.295  2.00000
   211   -14.294  2.00000
   212   -14.293  2.00000
   213   -14.293  2.00000
   214   -14.290  2.00000
   215   -14.153  2.00000
   216   -14.080  2.00000
   217   -14.080  2.00000
   218   -14.080  2.00000
   219   -14.041  2.00000
   220   -14.041  2.00000
   221   -14.041  2.00000
   222   -14.032  2.00000
   223   -13.798  2.00000
   224   -13.798  2.00000
   225   -13.795  2.00000
   226   -13.792  2.00000
   227   -13.792  2.00000
   228   -13.791  2.00000
   229   -13.472  2.00000
   230   -13.471  2.00000
   231   -13.449  2.00000
   232   -13.448  2.00000
   233   -13.447  2.00000
   234   -13.425  2.00000
   235   -13.424  2.00000
   236   -13.424  2.00000
   237   -13.419  2.00000
   238   -13.419  2.00000
   239   -13.418  2.00000
   240   -13.417  2.00000
   241   -13.417  2.00000
   242   -13.416  2.00000
   243   -13.416  2.00000
   244   -13.415  2.00000
   245   -13.413  2.00000
   246   -13.407  2.00000
   247   -13.407  2.00000
   248   -13.406  2.00000
   249   -13.404  2.00000
   250   -13.404  2.00000
   251   -13.404  2.00000
   252   -13.404  2.00000
   253   -12.998  2.00000
   254   -12.995  2.00000
   255   -12.961  2.00000
   256   -12.960  2.00000
   257   -12.959  2.00000
   258   -12.883  2.00000
   259   -12.881  2.00000
   260   -12.880  2.00000
   261   -12.880  2.00000
   262   -12.879  2.00000
   263   -12.879  2.00000
   264   -12.878  2.00000
   265   -12.876  2.00000
   266   -12.876  2.00000
   267   -12.875  2.00000
   268   -12.875  2.00000
   269   -12.572  2.00000
   270   -12.391  2.00000
   271   -12.391  2.00000
   272   -12.390  2.00000
   273   -12.344  2.00000
   274   -12.343  2.00000
   275   -12.300  2.00000
   276   -12.299  2.00000
   277   -12.299  2.00000
   278   -12.275  2.00000
   279   -12.261  2.00000
   280   -12.261  2.00000
   281   -12.261  2.00000
   282   -12.232  2.00000
   283   -12.156  2.00000
   284   -12.154  2.00000
   285   -12.137  2.00000
   286   -12.136  2.00000
   287   -12.135  2.00000
   288   -12.082  2.00000
   289   -12.081  2.00000
   290   -12.074  2.00000
   291   -12.073  2.00000
   292   -12.072  2.00000
   293   -12.066  2.00000
   294   -12.066  2.00000
   295   -12.065  2.00000
   296   -12.059  2.00000
   297   -12.058  2.00000
   298   -12.058  2.00000
   299   -11.910  2.00000
   300   -11.910  2.00000
   301   -11.909  2.00000
   302   -11.908  2.00000
   303   -11.907  2.00000
   304   -11.907  2.00000
   305   -11.639  2.00000
   306   -11.639  2.00000
   307   -11.638  2.00000
   308   -11.579  2.00000
   309   -11.579  2.00000
   310   -11.578  2.00000
   311   -11.420  2.00000
   312   -11.419  2.00000
   313   -11.418  2.00000
   314   -11.408  2.00000
   315   -11.400  2.00000
   316   -11.399  2.00000
   317   -11.279  2.00000
   318   -11.279  2.00000
   319   -11.279  2.00000
   320   -11.279  2.00000
   321   -11.277  2.00000
   322   -11.277  2.00000
   323   -11.276  2.00000
   324   -11.272  2.00000
   325   -11.100  2.00000
   326   -11.075  2.00000
   327   -11.075  2.00000
   328   -11.075  2.00000
   329   -11.074  2.00000
   330   -11.073  2.00000
   331   -11.073  2.00000
   332   -11.059  2.00000
   333   -11.059  2.00000
   334   -11.058  2.00000
   335   -11.058  2.00000
   336   -11.057  2.00000
   337   -11.023  2.00000
   338   -11.023  2.00000
   339   -11.023  2.00000
   340   -11.016  2.00000
   341   -11.015  2.00000
   342   -11.015  2.00000
   343   -10.917  2.00000
   344   -10.891  2.00000
   345   -10.891  2.00000
   346   -10.890  2.00000
   347   -10.870  2.00000
   348   -10.870  2.00000
   349   -10.870  2.00000
   350   -10.869  2.00000
   351   -10.869  2.00000
   352   -10.854  2.00000
   353   -10.853  2.00000
   354   -10.844  2.00000
   355   -10.843  2.00000
   356   -10.843  2.00000
   357   -10.825  2.00000
   358   -10.825  2.00000
   359   -10.825  2.00000
   360   -10.796  2.00000
   361   -10.796  2.00000
   362   -10.795  2.00000
   363   -10.761  2.00000
   364   -10.760  2.00000
   365   -10.725  2.00000
   366   -10.725  2.00000
   367   -10.725  2.00000
   368   -10.685  2.00000
   369   -10.685  2.00000
   370   -10.684  2.00000
   371   -10.589  2.00000
   372   -10.588  2.00000
   373   -10.588  2.00000
   374   -10.575  2.00000
   375   -10.575  2.00000
   376   -10.575  2.00000
   377   -10.565  2.00000
   378   -10.542  2.00000
   379   -10.542  2.00000
   380   -10.542  2.00000
   381   -10.500  2.00000
   382   -10.500  2.00000
   383   -10.497  2.00000
   384   -10.492  2.00000
   385   -10.489  2.00000
   386   -10.489  2.00000
   387   -10.488  2.00000
   388   -10.479  2.00000
   389   -10.479  2.00000
   390   -10.479  2.00000
   391   -10.477  2.00000
   392   -10.463  2.00000
   393   -10.463  2.00000
   394   -10.463  2.00000
   395   -10.431  2.00000
   396   -10.431  2.00000
   397   -10.425  2.00000
   398   -10.421  2.00000
   399   -10.414  2.00000
   400   -10.413  2.00000
   401   -10.413  2.00000
   402   -10.408  2.00000
   403   -10.408  2.00000
   404   -10.406  2.00000
   405   -10.402  2.00000
   406   -10.396  2.00000
   407   -10.395  2.00000
   408   -10.395  2.00000
   409   -10.394  2.00000
   410   -10.376  2.00000
   411   -10.375  2.00000
   412   -10.375  2.00000
   413   -10.302  2.00000
   414   -10.301  2.00000
   415   -10.299  2.00000
   416   -10.288  2.00000
   417   -10.288  2.00000
   418   -10.288  2.00000
   419   -10.228  2.00000
   420   -10.226  2.00000
   421   -10.226  2.00000
   422   -10.202  2.00000
   423   -10.199  2.00000
   424   -10.198  2.00000
   425   -10.190  2.00000
   426   -10.190  2.00000
   427   -10.190  2.00000
   428   -10.175  2.00000
   429   -10.174  2.00000
   430   -10.173  2.00000
   431   -10.016  2.00000
   432   -10.016  2.00000
   433   -10.016  2.00000
   434    -9.976  2.00000
   435    -9.976  2.00000
   436    -9.976  2.00000
   437    -9.973  2.00000
   438    -9.970  2.00000
   439    -9.968  2.00000
   440    -9.968  2.00000
   441    -9.967  2.00000
   442    -9.967  2.00000
   443    -9.965  2.00000
   444    -9.965  2.00000
   445    -9.945  2.00000
   446    -9.944  2.00000
   447    -9.943  2.00000
   448    -9.938  2.00000
   449    -9.937  2.00000
   450    -9.937  2.00000
   451    -9.914  2.00000
   452    -9.899  2.00000
   453    -9.898  2.00000
   454    -9.897  2.00000
   455    -9.880  2.00000
   456    -9.879  2.00000
   457    -9.878  2.00000
   458    -9.876  2.00000
   459    -9.876  2.00000
   460    -9.875  2.00000
   461    -9.874  2.00000
   462    -9.872  2.00000
   463    -9.872  2.00000
   464    -9.823  2.00000
   465    -9.823  2.00000
   466    -9.822  2.00000
   467    -9.821  2.00000
   468    -9.820  2.00000
   469    -9.802  2.00000
   470    -9.800  2.00000
   471    -9.754  2.00000
   472    -9.754  2.00000
   473    -9.754  2.00000
   474    -9.733  2.00000
   475    -9.733  2.00000
   476    -9.724  2.00000
   477    -9.723  2.00000
   478    -9.723  2.00000
   479    -9.705  2.00000
   480    -9.705  2.00000
   481    -9.705  2.00000
   482    -9.672  2.00000
   483    -9.672  2.00000
   484    -9.672  2.00000
   485    -9.661  2.00000
   486    -9.654  2.00000
   487    -9.654  2.00000
   488    -9.654  2.00000
   489    -9.622  2.00000
   490    -9.622  2.00000
   491    -9.621  2.00000
   492    -9.620  2.00000
   493    -9.619  2.00000
   494    -9.619  2.00000
   495    -9.584  2.00000
   496    -9.583  2.00000
   497    -9.582  2.00000
   498    -9.577  2.00000
   499    -9.575  2.00000
   500    -9.574  2.00000
   501    -9.568  2.00000
   502    -9.567  2.00000
   503    -9.567  2.00000
   504    -9.564  2.00000
   505    -9.564  2.00000
   506    -9.563  2.00000
   507    -9.541  2.00000
   508    -9.537  2.00000
   509    -9.533  2.00000
   510    -9.533  2.00000
   511    -9.532  2.00000
   512    -9.532  2.00000
   513    -9.531  2.00000
   514    -9.529  2.00000
   515    -9.529  2.00000
   516    -9.529  2.00000
   517    -9.472  2.00000
   518    -9.471  2.00000
   519    -9.471  2.00000
   520    -9.450  2.00000
   521    -9.449  2.00000
   522    -9.449  2.00000
   523    -9.447  2.00000
   524    -9.443  2.00000
   525    -9.442  2.00000
   526    -9.442  2.00000
   527    -9.438  2.00000
   528    -9.438  2.00000
   529    -9.437  2.00000
   530    -9.434  2.00000
   531    -9.433  2.00000
   532    -9.433  2.00000
   533    -9.389  2.00000
   534    -9.350  2.00000
   535    -9.349  2.00000
   536    -9.328  2.00000
   537    -9.328  2.00000
   538    -9.327  2.00000
   539    -9.324  2.00000
   540    -9.323  2.00000
   541    -9.323  2.00000
   542    -9.323  2.00000
   543    -9.323  2.00000
   544    -9.322  2.00000
   545    -9.282  2.00000
   546    -9.282  2.00000
   547    -9.281  2.00000
   548    -9.275  2.00000
   549    -9.275  2.00000
   550    -9.274  2.00000
   551    -9.254  2.00000
   552    -9.253  2.00000
   553    -9.252  2.00000
   554    -9.252  2.00000
   555    -9.243  2.00000
   556    -9.242  2.00000
   557    -9.241  2.00000
   558    -9.163  2.00000
   559    -9.161  2.00000
   560    -9.159  2.00000
   561    -9.157  2.00000
   562    -9.145  2.00000
   563    -9.145  2.00000
   564    -9.145  2.00000
   565    -9.140  2.00000
   566    -9.140  2.00000
   567    -9.140  2.00000
   568    -9.120  2.00000
   569    -9.120  2.00000
   570    -9.119  2.00000
   571    -9.118  2.00000
   572    -9.111  2.00000
   573    -9.109  2.00000
   574    -9.099  2.00000
   575    -9.099  2.00000
   576    -9.099  2.00000
   577    -9.089  2.00000
   578    -9.089  2.00000
   579    -9.087  2.00000
   580    -9.085  2.00000
   581    -9.085  2.00000
   582    -9.084  2.00000
   583    -9.077  2.00000
   584    -9.076  2.00000
   585    -9.076  2.00000
   586    -9.075  2.00000
   587    -9.073  2.00000
   588    -9.072  2.00000
   589    -9.072  2.00000
   590    -9.055  2.00000
   591    -9.055  2.00000
   592    -9.054  2.00000
   593    -9.037  2.00000
   594    -9.037  2.00000
   595    -9.036  2.00000
   596    -9.020  2.00000
   597    -9.019  2.00000
   598    -8.968  2.00000
   599    -8.967  2.00000
   600    -8.966  2.00000
   601    -8.965  2.00000
   602    -8.965  2.00000
   603    -8.964  2.00000
   604    -8.946  2.00000
   605    -8.945  2.00000
   606    -8.924  2.00000
   607    -8.924  2.00000
   608    -8.923  2.00000
   609    -8.912  2.00000
   610    -8.911  2.00000
   611    -8.911  2.00000
   612    -8.907  2.00000
   613    -8.906  2.00000
   614    -8.906  2.00000
   615    -8.903  2.00000
   616    -8.903  2.00000
   617    -8.903  2.00000
   618    -8.903  2.00000
   619    -8.902  2.00000
   620    -8.897  2.00000
   621    -8.897  2.00000
   622    -8.873  2.00000
   623    -8.873  2.00000
   624    -8.872  2.00000
   625    -8.872  2.00000
   626    -8.871  2.00000
   627    -8.868  2.00000
   628    -8.868  2.00000
   629    -8.867  2.00000
   630    -8.680  2.00000
   631    -8.680  2.00000
   632    -8.680  2.00000
   633    -8.671  2.00000
   634    -8.671  2.00000
   635    -8.671  2.00000
   636    -8.653  2.00000
   637    -8.642  2.00000
   638    -8.631  2.00000
   639    -8.630  2.00000
   640    -8.621  2.00000
   641    -8.561  2.00000
   642    -8.508  2.00000
   643    -8.508  2.00000
   644    -8.492  2.00000
   645    -8.479  2.00000
   646    -8.479  2.00000
   647    -8.479  2.00000
   648    -8.474  2.00000
   649    -8.473  2.00000
   650    -8.473  2.00000
   651    -8.403  2.00000
   652    -8.397  2.00000
   653    -8.355  2.00000
   654    -8.355  2.00000
   655    -8.355  2.00000
   656    -8.324  2.00000
   657    -8.318  2.00000
   658    -8.316  2.00000
   659    -8.313  2.00000
   660    -8.293  2.00000
   661    -8.290  2.00000
   662    -8.287  2.00000
   663    -8.286  2.00000
   664    -8.284  2.00000
   665    -8.280  2.00000
   666    -8.270  2.00000
   667    -8.265  2.00000
   668    -8.262  2.00000
   669    -8.262  2.00000
   670    -8.259  2.00000
   671    -7.957  2.00000
   672    -7.957  2.00000
   673    -7.956  2.00000
   674    -7.955  2.00000
   675    -7.955  2.00000
   676    -7.940  2.00000
   677    -7.877  2.00000
   678    -7.865  2.00000
   679    -7.858  2.00000
   680    -7.853  2.00000
   681    -7.848  2.00000
   682    -7.802  2.00000
   683    -7.801  2.00000
   684    -7.800  2.00000
   685    -7.797  2.00000
   686    -7.792  2.00000
   687    -7.790  2.00000
   688    -7.789  2.00000
   689    -7.789  2.00000
   690    -7.788  2.00000
   691    -7.770  2.00000
   692    -7.768  2.00000
   693    -7.765  2.00000
   694    -7.756  2.00000
   695    -7.750  2.00000
   696    -7.745  2.00000
   697    -7.734  2.00000
   698    -7.721  2.00000
   699    -7.645  2.00000
   700    -7.645  2.00000
   701    -7.644  2.00000
   702    -7.640  2.00000
   703    -7.640  2.00000
   704    -7.640  2.00000
   705    -7.638  2.00000
   706    -7.638  2.00000
   707    -7.638  2.00000
   708    -7.615  2.00000
   709    -7.583  2.00000
   710    -7.582  2.00000
   711    -7.552  2.00000
   712    -7.552  2.00000
   713    -7.552  2.00000
   714    -7.551  2.00000
   715    -7.551  2.00000
   716    -7.550  2.00000
   717    -7.529  2.00000
   718    -7.519  2.00000
   719    -7.517  2.00000
   720    -7.515  2.00000
   721    -7.502  2.00000
   722    -7.501  2.00000
   723    -7.500  2.00000
   724    -7.499  2.00000
   725    -7.498  2.00000
   726    -7.497  2.00000
   727    -7.496  2.00000
   728    -7.494  2.00000
   729    -7.494  2.00000
   730    -7.493  2.00000
   731    -7.493  2.00000
   732    -7.491  2.00000
   733    -7.490  2.00000
   734    -7.486  2.00000
   735    -7.464  2.00000
   736    -7.462  2.00000
   737    -7.460  2.00000
   738    -7.459  2.00000
   739    -7.458  2.00000
   740    -7.443  2.00000
   741    -7.272  2.00000
   742    -7.268  2.00000
   743    -7.266  2.00000
   744    -7.265  2.00000
   745    -7.264  2.00000
   746    -7.260  2.00000
   747    -7.260  2.00000
   748    -7.257  2.00000
   749    -7.257  2.00000
   750    -7.255  2.00000
   751    -7.253  2.00000
   752    -7.246  2.00000
   753    -7.242  2.00000
   754    -7.239  2.00000
   755    -7.238  2.00000
   756    -7.231  2.00000
   757    -6.985  2.00000
   758    -6.984  2.00000
   759    -6.984  2.00000
   760    -6.970  2.00000
   761    -6.966  2.00000
   762    -6.965  2.00000
   763    -6.811  2.00000
   764    -6.811  2.00000
   765    -6.811  2.00000
   766    -6.811  2.00000
   767    -6.811  2.00000
   768    -6.811  2.00000
   769    -6.811  2.00000
   770    -6.811  2.00000
   771    -6.811  2.00000
   772    -6.811  2.00000
   773    -6.810  2.00000
   774    -6.810  2.00000
   775    -6.809  2.00000
   776    -6.808  2.00000
   777    -6.808  2.00000
   778    -6.808  2.00000
   779    -6.808  2.00000
   780    -6.807  2.00000
   781    -6.806  2.00000
   782    -6.805  2.00000
   783    -6.805  2.00000
   784    -6.805  2.00000
   785    -6.805  2.00000
   786    -6.805  2.00000
   787    -6.800  2.00000
   788    -6.799  2.00000
   789    -6.799  2.00000
   790    -6.792  2.00000
   791    -6.789  2.00000
   792    -6.788  2.00000
   793    -6.663  2.00000
   794    -6.663  2.00000
   795    -6.663  2.00000
   796    -6.663  2.00000
   797    -6.663  2.00000
   798    -6.663  2.00000
   799    -6.663  2.00000
   800    -6.663  2.00000
   801    -6.662  2.00000
   802    -6.662  2.00000
   803    -6.662  2.00000
   804    -6.662  2.00000
   805    -6.655  2.00000
   806    -6.655  2.00000
   807    -6.655  2.00000
   808    -6.650  2.00000
   809    -6.649  2.00000
   810    -6.649  2.00000
   811    -6.641  2.00000
   812    -6.624  2.00000
   813    -6.573  2.00000
   814    -6.573  2.00000
   815    -6.573  2.00000
   816    -6.572  2.00000
   817    -6.572  2.00000
   818    -6.572  2.00000
   819    -6.449  2.00000
   820    -6.448  2.00000
   821    -6.448  2.00000
   822    -6.445  2.00000
   823    -6.444  2.00000
   824    -6.443  2.00000
   825    -6.373  2.00000
   826    -6.373  2.00000
   827    -6.373  2.00000
   828    -6.373  2.00000
   829    -6.372  2.00000
   830    -6.372  2.00000
   831    -6.311  2.00000
   832    -6.311  2.00000
   833    -6.311  2.00000
   834    -6.283  2.00000
   835    -6.283  2.00000
   836    -6.283  2.00000
   837    -6.281  2.00000
   838    -6.281  2.00000
   839    -6.281  2.00000
   840    -6.243  2.00000
   841    -6.243  2.00000
   842    -6.243  2.00000
   843    -6.227  2.00000
   844    -6.226  2.00000
   845    -6.221  2.00000
   846    -6.221  2.00000
   847    -6.221  2.00000
   848    -6.220  2.00000
   849    -6.220  2.00000
   850    -6.191  2.00000
   851    -6.191  2.00000
   852    -6.191  2.00000
   853    -6.174  2.00000
   854    -6.174  2.00000
   855    -6.173  2.00000
   856    -6.167  2.00000
   857    -6.167  2.00000
   858    -6.167  2.00000
   859    -6.055  2.00000
   860    -6.055  2.00000
   861    -6.055  2.00000
   862    -6.054  2.00000
   863    -6.054  2.00000
   864    -6.054  2.00000
   865    -6.054  2.00000
   866    -6.054  2.00000
   867    -6.054  2.00000
   868    -6.054  2.00000
   869    -6.053  2.00000
   870    -6.053  2.00000
   871    -5.582  2.00000
   872    -5.582  2.00000
   873    -5.582  2.00000
   874    -5.582  2.00000
   875    -5.582  2.00000
   876    -5.581  2.00000
   877    -5.020  2.00000
   878    -5.020  2.00000
   879    -5.020  2.00000
   880    -5.020  2.00000
   881    -5.020  2.00000
   882    -5.020  2.00000
   883    -3.229  0.00000
   884    -3.229  0.00000
   885    -3.228  0.00000
   886    -3.226  0.00000
   887    -3.226  0.00000
   888    -3.226  0.00000
   889    -2.673  0.00000
   890    -2.673  0.00000
   891    -2.673  0.00000
   892    -2.672  0.00000
   893    -2.671  0.00000
   894    -2.671  0.00000
   895    -2.537  0.00000
   896    -2.537  0.00000
   897    -2.537  0.00000
   898    -2.536  0.00000
   899    -2.535  0.00000
   900    -2.535  0.00000
   901    -2.327  0.00000
   902    -2.327  0.00000
   903    -2.327  0.00000
   904    -2.326  0.00000
   905    -2.326  0.00000
   906    -2.326  0.00000
   907    -2.325  0.00000
   908    -2.324  0.00000
   909    -2.324  0.00000
   910    -2.324  0.00000
   911    -2.324  0.00000
   912    -2.315  0.00000
   913    -2.315  0.00000
   914    -2.315  0.00000
   915    -2.308  0.00000
   916    -2.308  0.00000
   917    -1.888  0.00000
   918    -1.888  0.00000
   919    -1.888  0.00000
   920    -1.884  0.00000
   921    -1.878  0.00000
   922    -1.878  0.00000
   923    -1.878  0.00000
   924    -1.854  0.00000
   925    -1.263  0.00000
   926    -1.263  0.00000
   927    -1.263  0.00000
   928    -1.262  0.00000
   929    -1.262  0.00000
   930    -1.262  0.00000
   931    -1.262  0.00000
   932    -1.262  0.00000
   933    -1.262  0.00000
   934    -1.262  0.00000
   935    -1.262  0.00000
   936    -1.262  0.00000
   937    -1.262  0.00000
   938    -1.262  0.00000
   939    -1.262  0.00000
   940    -1.262  0.00000
   941    -1.262  0.00000
   942    -1.262  0.00000
   943    -1.262  0.00000
   944    -1.262  0.00000
   945    -1.261  0.00000
   946    -1.261  0.00000
   947    -1.261  0.00000
   948    -1.261  0.00000
   949    -1.261  0.00000
   950    -1.261  0.00000
   951    -1.261  0.00000
   952    -1.260  0.00000
   953    -1.260  0.00000
   954    -1.260  0.00000
   955    -0.826  0.00000
   956    -0.826  0.00000
   957    -0.825  0.00000
   958    -0.825  0.00000
   959    -0.825  0.00000
   960    -0.825  0.00000
   961    -0.823  0.00000
   962    -0.823  0.00000
   963    -0.822  0.00000
   964    -0.821  0.00000
   965    -0.820  0.00000
   966    -0.804  0.00000
   967    -0.804  0.00000
   968    -0.803  0.00000
   969    -0.794  0.00000
   970    -0.793  0.00000
   971     0.897  0.00000
   972     0.897  0.00000
   973     0.898  0.00000
   974     0.910  0.00000
   975     0.921  0.00000
   976     0.921  0.00000
   977     0.921  0.00000
   978     0.974  0.00000
   979     1.065  0.00000
   980     1.065  0.00000
   981     1.065  0.00000
   982     1.070  0.00000
   983     1.071  0.00000
   984     1.071  0.00000
   985     1.459  0.00000
   986     1.459  0.00000
   987     1.460  0.00000
   988     1.461  0.00000
   989     1.462  0.00000
   990     1.462  0.00000
   991     1.469  0.00000
   992     1.469  0.00000
   993     1.470  0.00000
   994     1.473  0.00000
   995     1.473  0.00000
   996     1.518  0.00000
   997     1.518  0.00000
   998     1.518  0.00000
   999     1.544  0.00000
  1000     1.545  0.00000
  1001     1.585  0.00000
  1002     1.585  0.00000
  1003     1.585  0.00000
  1004     1.585  0.00000
  1005     1.586  0.00000
  1006     1.586  0.00000
  1007     2.641  0.00000
  1008     2.641  0.00000
  1009     2.643  0.00000
  1010     2.645  0.00000
  1011     2.645  0.00000
  1012     2.646  0.00000
  1013     2.795  0.00000
  1014     2.795  0.00000
  1015     2.795  0.00000
  1016     2.800  0.00000
  1017     2.809  0.00000
  1018     2.809  0.00000
  1019     2.809  0.00000
  1020     2.839  0.00000
  1021     3.577  0.00000
  1022     3.577  0.00000
  1023     3.577  0.00000
  1024     3.577  0.00000
  1025     3.577  0.00000
  1026     3.577  0.00000
  1027     3.580  0.00000
  1028     3.580  0.00000
  1029     3.580  0.00000
  1030     3.582  0.00000
  1031     3.582  0.00000
  1032     3.602  0.00000
  1033     3.602  0.00000
  1034     3.602  0.00000
  1035     3.614  0.00000
  1036     3.614  0.00000
  1037     3.990  0.00000
  1038     3.990  0.00000
  1039     3.990  0.00000
  1040     3.991  0.00000
  1041     3.994  0.00000
  1042     3.994  0.00000
  1043     3.994  0.00000
  1044     4.004  0.00000
  1045     4.099  0.00000
  1046     4.101  0.00000
  1047     4.102  0.00000
  1048     4.164  0.00000
  1049     4.165  0.00000
  1050     4.165  0.00000
  1051     5.522  0.00000
  1052     5.523  0.00000
  1053     5.526  0.00000
  1054     5.548  0.00000
  1055     5.548  0.00000
  1056     5.548  0.00000
  1057     5.646  0.00000
  1058     5.708  0.00000
  1059     5.709  0.00000
  1060     5.891  0.00000
  1061     5.945  0.00000
  1062     5.945  0.00000
  1063     6.435  0.00000
  1064     6.436  0.00000
  1065     6.440  0.00000
  1066     6.898  0.00000
  1067     6.911  0.00000
  1068     6.912  0.00000
  1069     6.913  0.00000
  1070     6.914  0.00000
  1071     6.919  0.00000
  1072     6.924  0.00000
  1073     6.929  0.00000
  1074     6.933  0.00000
  1075     6.943  0.00000
  1076     6.956  0.00000
  1077     6.957  0.00000
  1078     6.965  0.00000
  1079     6.967  0.00000
  1080     6.970  0.00000
  1081     6.976  0.00000
  1082     6.980  0.00000
  1083     6.983  0.00000
  1084     6.987  0.00000
  1085     6.993  0.00000
  1086     7.005  0.00000
  1087     7.006  0.00000
  1088     7.010  0.00000
  1089     7.023  0.00000
  1090     7.071  0.00000
  1091     7.085  0.00000
  1092     7.102  0.00000
  1093     7.276  0.00000
  1094     7.278  0.00000
  1095     7.279  0.00000
  1096     7.280  0.00000
  1097     7.283  0.00000
  1098     7.284  0.00000
  1099     7.288  0.00000
  1100     7.290  0.00000
  1101     7.290  0.00000
  1102     7.291  0.00000
  1103     7.291  0.00000
  1104     7.294  0.00000
  1105     7.294  0.00000
  1106     7.296  0.00000
  1107     7.307  0.00000
  1108     7.310  0.00000
  1109     7.402  0.00000
  1110     7.403  0.00000
  1111     7.407  0.00000
  1112     7.409  0.00000
  1113     7.409  0.00000
  1114     7.409  0.00000
  1115     7.409  0.00000
  1116     7.410  0.00000
  1117     7.429  0.00000
  1118     7.430  0.00000
  1119     7.477  0.00000
  1120     7.572  0.00000
  1121     7.573  0.00000
  1122     7.574  0.00000
  1123     7.575  0.00000
  1124     7.575  0.00000
  1125     7.577  0.00000
  1126     7.585  0.00000
  1127     7.596  0.00000
  1128     7.870  0.00000
  1129     7.870  0.00000
  1130     7.902  0.00000
  1131     7.936  0.00000
  1132     7.936  0.00000
  1133     7.936  0.00000
  1134     8.098  0.00000
  1135     8.098  0.00000
  1136     8.127  0.00000
  1137     8.674  0.00000
  1138     8.677  0.00000
  1139     8.685  0.00000
  1140     8.685  0.00000
  1141     8.692  0.00000
  1142     8.695  0.00000
  1143     8.700  0.00000
  1144     8.705  0.00000
  1145     8.706  0.00000
  1146     8.707  0.00000
  1147     8.716  0.00000
  1148     8.763  0.00000
  1149     8.766  0.00000
  1150     8.775  0.00000
  1151     8.776  0.00000
  1152     8.785  0.00000
  1153     8.788  0.00000
  1154     8.796  0.00000
  1155     8.801  0.00000
  1156     9.304  0.00000
  1157     9.306  0.00000
  1158     9.306  0.00000
  1159     9.338  0.00000
  1160     9.338  0.00000
  1161     9.338  0.00000
  1162     9.408  0.00000
  1163     9.411  0.00000
  1164     9.413  0.00000
  1165     9.431  0.00000
  1166     9.431  0.00000
  1167     9.459  0.00000
  1168     9.459  0.00000
  1169     9.460  0.00000
  1170     9.465  0.00000
  1171     9.471  0.00000
  1172     9.473  0.00000
  1173     9.572  0.00000
  1174     9.574  0.00000
  1175     9.575  0.00000
  1176     9.575  0.00000
  1177     9.576  0.00000
  1178     9.577  0.00000
  1179     9.599  0.00000
  1180     9.600  0.00000
  1181     9.602  0.00000
  1182     9.603  0.00000
  1183     9.686  0.00000
  1184     9.686  0.00000
  1185     9.686  0.00000
  1186     9.706  0.00000
  1187     9.721  0.00000
  1188     9.722  0.00000
  1189     9.783  0.00000
  1190     9.788  0.00000
  1191     9.789  0.00000
  1192    10.095  0.00000
  1193    10.095  0.00000
  1194    10.095  0.00000
  1195    10.100  0.00000
  1196    10.101  0.00000
  1197    10.101  0.00000
  1198    10.222  0.00000
  1199    10.222  0.00000
  1200    10.222  0.00000
  1201    10.225  0.00000
  1202    10.228  0.00000
  1203    10.228  0.00000
  1204    10.256  0.00000
  1205    10.257  0.00000
  1206    10.276  0.00000
  1207    11.061  0.00000
  1208    11.061  0.00000
  1209    11.061  0.00000
  1210    11.064  0.00000
  1211    11.064  0.00000
  1212    11.065  0.00000
  1213    11.176  0.00000
  1214    11.177  0.00000
  1215    11.177  0.00000
  1216    11.177  0.00000
  1217    11.178  0.00000
  1218    11.178  0.00000
  1219    11.790  0.00000
  1220    11.790  0.00000
  1221    11.794  0.00000
  1222    11.794  0.00000
  1223    11.794  0.00000
  1224    11.794  0.00000
  1225    11.795  0.00000
  1226    11.795  0.00000
  1227    11.842  0.00000
  1228    11.842  0.00000
  1229    11.844  0.00000
  1230    11.844  0.00000
  1231    11.844  0.00000
  1232    11.845  0.00000
  1233    11.845  0.00000
  1234    11.845  0.00000
  1235    11.846  0.00000
  1236    11.846  0.00000
  1237    11.848  0.00000
  1238    11.849  0.00000
  1239    11.850  0.00000
  1240    11.850  0.00000
  1241    11.851  0.00000
  1242    11.851  0.00000
  1243    11.981  0.00000
  1244    11.981  0.00000
  1245    12.032  0.00000
  1246    12.118  0.00000
  1247    12.118  0.00000
  1248    12.118  0.00000
  1249    12.744  0.00000
  1250    12.749  0.00000
  1251    12.749  0.00000
  1252    12.750  0.00000
  1253    12.750  0.00000
  1254    12.752  0.00000
  1255    15.013  0.00000
  1256    15.026  0.00000
  1257    15.028  0.00000
  1258    15.029  0.00000
  1259    15.029  0.00000
  1260    15.032  0.00000
  1261    15.032  0.00000
  1262    15.033  0.00000
  1263    15.248  0.00000
  1264    15.257  0.00000
  1265    15.259  0.00000
  1266    15.270  0.00000
  1267    15.278  0.00000
  1268    15.282  0.00000
  1269    15.284  0.00000
  1270    15.287  0.00000
  1271    15.288  0.00000
  1272    15.295  0.00000
  1273    15.302  0.00000
  1274    15.303  0.00000
  1275    15.304  0.00000
  1276    15.306  0.00000
  1277    15.308  0.00000
  1278    15.309  0.00000
  1279    15.314  0.00000
  1280    15.315  0.00000
  1281    15.319  0.00000
  1282    15.399  0.00000
  1283    15.423  0.00000
  1284    15.423  0.00000
  1285    17.161  0.00000
  1286    17.161  0.00000
  1287    17.162  0.00000
  1288    17.220  0.00000
  1289    17.221  0.00000
  1290    17.235  0.00000
  1291    17.245  0.00000
  1292    17.246  0.00000
  1293    17.246  0.00000
  1294    17.262  0.00000
  1295    17.267  0.00000
  1296    17.267  0.00000
  1297    17.332  0.00000
  1298    17.338  0.00000
  1299    17.344  0.00000
  1300    17.345  0.00000
  1301    17.351  0.00000
  1302    17.362  0.00000
  1303    17.399  0.00000
  1304    17.405  0.00000
  1305    17.412  0.00000
  1306    17.412  0.00000
  1307    17.418  0.00000
  1308    17.423  0.00000
  1309    17.424  0.00000
  1310    17.429  0.00000
  1311    17.446  0.00000
  1312    17.448  0.00000
  1313    17.448  0.00000
  1314    17.448  0.00000
  1315    17.458  0.00000
  1316    17.463  0.00000
  1317    17.468  0.00000
  1318    17.487  0.00000
  1319    17.487  0.00000
  1320    17.488  0.00000
  1321    18.052  0.00000
  1322    18.052  0.00000
  1323    18.069  0.00000
  1324    18.091  0.00000
  1325    18.091  0.00000
  1326    18.091  0.00000
  1327    19.511  0.00000
  1328    19.511  0.00000
  1329    19.513  0.00000
  1330    19.513  0.00000
  1331    19.513  0.00000
  1332    19.515  0.00000
  1333    19.515  0.00000
  1334    19.515  0.00000
  1335    19.515  0.00000
  1336    19.515  0.00000
  1337    19.516  0.00000
  1338    19.516  0.00000
  1339    19.516  0.00000
  1340    19.516  0.00000
  1341    19.516  0.00000
  1342    19.516  0.00000
  1343    20.308  0.00000
  1344    20.313  0.00000
  1345    20.313  0.00000
  1346    20.313  0.00000
  1347    20.321  0.00000
  1348    20.321  0.00000
  1349    20.322  0.00000
  1350    20.354  0.00000
  1351    20.368  0.00000
  1352    20.368  0.00000
  1353    20.370  0.00000
  1354    20.370  0.00000
  1355    20.371  0.00000
  1356    20.371  0.00000
  1357    20.371  0.00000
  1358    20.373  0.00000
  1359    20.375  0.00000
  1360    20.375  0.00000
  1361    20.375  0.00000
  1362    20.391  0.00000
  1363    20.391  0.00000
  1364    20.405  0.00000
  1365    20.407  0.00000
  1366    20.407  0.00000
  1367    20.416  0.00000
  1368    20.417  0.00000
  1369    20.436  0.00000
  1370    20.478  0.00000
  1371    20.478  0.00000
  1372    20.478  0.00000
  1373    21.364  0.00000
  1374    21.364  0.00000
  1375    21.387  0.00000
  1376    21.414  0.00000
  1377    21.414  0.00000
  1378    21.414  0.00000
  1379    21.702  0.00000
  1380    21.702  0.00000
  1381    21.702  0.00000
  1382    21.702  0.00000
  1383    21.703  0.00000
  1384    21.703  0.00000
  1385    21.704  0.00000
  1386    21.707  0.00000
  1387    22.016  0.00000
  1388    22.017  0.00000
  1389    22.017  0.00000
  1390    22.018  0.00000
  1391    22.018  0.00000
  1392    22.018  0.00000
  1393    22.018  0.00000
  1394    22.018  0.00000
  1395    22.066  0.00000
  1396    22.067  0.00000
  1397    22.068  0.00000
  1398    22.069  0.00000
  1399    22.069  0.00000
  1400    22.069  0.00000
  1401    22.069  0.00000
  1402    22.069  0.00000
  1403    22.313  0.00000
  1404    22.314  0.00000
  1405    22.314  0.00000
  1406    22.314  0.00000
  1407    22.315  0.00000
  1408    22.315  0.00000
  1409    22.315  0.00000
  1410    22.316  0.00000
  1411    22.667  0.00000
  1412    22.667  0.00000
  1413    22.667  0.00000
  1414    22.667  0.00000
  1415    22.667  0.00000
  1416    22.667  0.00000
  1417    22.667  0.00000
  1418    22.668  0.00000
  1419    22.697  0.00000
  1420    22.697  0.00000
  1421    22.697  0.00000
  1422    22.698  0.00000
  1423    22.698  0.00000
  1424    22.698  0.00000
  1425    22.698  0.00000
  1426    22.698  0.00000
  1427    23.941  0.00000
  1428    23.942  0.00000
  1429    23.942  0.00000
  1430    23.943  0.00000
  1431    23.943  0.00000
  1432    23.944  0.00000
  1433    23.946  0.00000
  1434    23.946  0.00000
  1435    23.964  0.00000
  1436    23.964  0.00000
  1437    23.965  0.00000
  1438    23.965  0.00000
  1439    23.966  0.00000
  1440    23.967  0.00000
  1441    23.968  0.00000
  1442    23.968  0.00000
  1443    24.250  0.00000
  1444    24.261  0.00000
  1445    24.261  0.00000
  1446    24.271  0.00000
  1447    24.274  0.00000
  1448    24.274  0.00000
  1449    24.274  0.00000
  1450    24.276  0.00000
  1451    24.276  0.00000
  1452    24.276  0.00000
  1453    24.288  0.00000
  1454    24.301  0.00000
  1455    24.302  0.00000
  1456    24.303  0.00000
  1457    24.706  0.00000
  1458    24.707  0.00000
  1459    24.707  0.00000
  1460    24.748  0.00000
  1461    24.748  0.00000
  1462    24.749  0.00000
  1463    24.797  0.00000
  1464    24.797  0.00000
  1465    24.798  0.00000
  1466    24.799  0.00000
  1467    24.802  0.00000
  1468    24.803  0.00000
  1469    24.803  0.00000
  1470    24.804  0.00000
  1471    24.811  0.00000
  1472    24.812  0.00000
  1473    24.812  0.00000
  1474    24.813  0.00000
  1475    24.816  0.00000
  1476    24.817  0.00000
  1477    24.818  0.00000
  1478    24.818  0.00000
  1479    25.180  0.00000
  1480    25.181  0.00000
  1481    25.194  0.00000
  1482    25.209  0.00000
  1483    25.209  0.00000
  1484    25.209  0.00000
  1485    25.991  0.00000
  1486    25.991  0.00000
  1487    25.991  0.00000
  1488    25.991  0.00000
  1489    25.995  0.00000
  1490    25.995  0.00000
  1491    25.995  0.00000
  1492    26.003  0.00000
  1493    26.102  0.00000
  1494    26.103  0.00000
  1495    26.104  0.00000
  1496    26.105  0.00000
  1497    26.106  0.00000
  1498    26.106  0.00000
  1499    26.137  0.00000
  1500    26.137  0.00000
  1501    26.137  0.00000
  1502    26.137  0.00000
  1503    26.138  0.00000
  1504    26.138  0.00000
  1505    26.138  0.00000
  1506    26.138  0.00000
  1507    26.139  0.00000
  1508    26.139  0.00000
  1509    26.139  0.00000
  1510    26.139  0.00000
  1511    26.237  0.00000
  1512    26.237  0.00000
  1513    26.238  0.00000
  1514    26.238  0.00000
  1515    26.238  0.00000
  1516    26.238  0.00000
  1517    26.511  0.00000
  1518    26.511  0.00000
  1519    26.512  0.00000
  1520    26.517  0.00000
  1521    26.522  0.00000
  1522    26.523  0.00000
  1523    28.522  0.00000
  1524    28.523  0.00000
  1525    28.523  0.00000
  1526    28.523  0.00000
  1527    28.524  0.00000
  1528    28.525  0.00000
  1529    28.529  0.00000
  1530    28.530  0.00000
  1531    28.530  0.00000
  1532    28.531  0.00000
  1533    28.531  0.00000
  1534    28.535  0.00000
  1535    28.539  0.00000
  1536    28.540  0.00000
  1537    28.541  0.00000
  1538    28.548  0.00000
  1539    29.725  0.00000
  1540    29.726  0.00000
  1541    29.738  0.00000
  1542    29.754  0.00000
  1543    29.754  0.00000
  1544    29.755  0.00000
  1545    29.775  0.00000
  1546    29.776  0.00000
  1547    29.776  0.00000
  1548    29.776  0.00000
  1549    29.779  0.00000
  1550    29.779  0.00000
  1551    29.780  0.00000
  1552    29.789  0.00000
  1553    31.442  0.00000
  1554    31.442  0.00000
  1555    31.442  0.00000
  1556    31.442  0.00000
  1557    31.442  0.00000
  1558    31.442  0.00000
  1559    31.442  0.00000
  1560    31.442  0.00000
  1561    31.819  0.00000
  1562    31.820  0.00000
  1563    31.820  0.00000
  1564    31.825  0.00000
  1565    31.834  0.00000
  1566    31.834  0.00000
  1567    31.834  0.00000
  1568    31.844  0.00000
  1569    31.845  0.00000
  1570    31.845  0.00000
  1571    31.845  0.00000
  1572    31.845  0.00000
  1573    32.836  0.00000
  1574    32.837  0.00000
  1575    32.837  0.00000
  1576    32.837  0.00000
  1577    32.837  0.00000
  1578    32.837  0.00000
  1579    32.843  0.00000
  1580    32.843  0.00000
  1581    32.843  0.00000
  1582    32.849  0.00000
  1583    32.849  0.00000
  1584    32.850  0.00000
  1585    32.851  0.00000
  1586    32.851  0.00000
  1587    32.866  0.00000
  1588    32.866  0.00000
  1589    32.866  0.00000
  1590    32.873  0.00000
  1591    32.874  0.00000
  1592    32.874  0.00000
  1593    32.877  0.00000
  1594    32.877  0.00000
  1595    32.877  0.00000
  1596    32.879  0.00000
  1597    32.879  0.00000
  1598    32.879  0.00000
  1599    32.879  0.00000
  1600    32.880  0.00000
  1601    32.880  0.00000
  1602    32.881  0.00000
  1603    32.881  0.00000
  1604    32.881  0.00000
  1605    32.881  0.00000
  1606    32.882  0.00000
  1607    32.890  0.00000
  1608    32.890  0.00000
  1609    32.890  0.00000
  1610    32.890  0.00000
  1611    32.890  0.00000
  1612    32.890  0.00000
  1613    32.890  0.00000
  1614    32.891  0.00000
  1615    33.016  0.00000
  1616    33.016  0.00000
  1617    33.022  0.00000
  1618    33.022  0.00000
  1619    33.022  0.00000
  1620    33.031  0.00000

