0.001 14.730730730730732 0.49744567448722793
0.003 53.615463917525766 1.9906731672036773
0.005 67.10328638497651 0.8331446589294862
0.007 74.74197530864197 3.493155218616013
0.009 76.27944111776448 nan
0.011 80.21698113207547 0.43511968963364517
