 KPT            1  SPIN            1  KWEIGHT    1.0000000000000000     
     1   -25.208  2.00000
     2   -25.202  2.00000
     3   -25.201  2.00000
     4   -25.201  2.00000
     5   -25.201  2.00000
     6   -25.198  2.00000
     7   -25.198  2.00000
     8   -25.197  2.00000
     9   -25.161  2.00000
    10   -25.155  2.00000
    11   -25.154  2.00000
    12   -25.153  2.00000
    13   -25.152  2.00000
    14   -25.150  2.00000
    15   -25.148  2.00000
    16   -25.148  2.00000
    17   -25.148  2.00000
    18   -25.146  2.00000
    19   -25.146  2.00000
    20   -25.146  2.00000
    21   -25.146  2.00000
    22   -25.145  2.00000
    23   -25.145  2.00000
    24   -25.144  2.00000
    25   -25.144  2.00000
    26   -25.144  2.00000
    27   -25.143  2.00000
    28   -25.143  2.00000
    29   -25.143  2.00000
    30   -25.142  2.00000
    31   -25.141  2.00000
    32   -25.140  2.00000
    33   -25.121  2.00000
    34   -25.119  2.00000
    35   -25.118  2.00000
    36   -25.118  2.00000
    37   -25.118  2.00000
    38   -25.116  2.00000
    39   -25.114  2.00000
    40   -25.114  2.00000
    41   -25.114  2.00000
    42   -25.114  2.00000
    43   -25.113  2.00000
    44   -25.113  2.00000
    45   -25.108  2.00000
    46   -25.102  2.00000
    47   -25.102  2.00000
    48   -25.101  2.00000
    49   -23.511  2.00000
    50   -23.505  2.00000
    51   -23.504  2.00000
    52   -23.504  2.00000
    53   -23.502  2.00000
    54   -23.497  2.00000
    55   -23.497  2.00000
    56   -23.496  2.00000
    57   -23.496  2.00000
    58   -23.492  2.00000
    59   -23.490  2.00000
    60   -23.490  2.00000
    61   -23.490  2.00000
    62   -23.489  2.00000
    63   -23.489  2.00000
    64   -23.488  2.00000
    65   -23.485  2.00000
    66   -23.484  2.00000
    67   -23.483  2.00000
    68   -23.482  2.00000
    69   -23.480  2.00000
    70   -23.475  2.00000
    71   -23.475  2.00000
    72   -23.474  2.00000
    73   -23.435  2.00000
    74   -23.429  2.00000
    75   -23.428  2.00000
    76   -23.428  2.00000
    77   -23.428  2.00000
    78   -23.424  2.00000
    79   -23.424  2.00000
    80   -23.423  2.00000
    81   -23.420  2.00000
    82   -23.418  2.00000
    83   -23.417  2.00000
    84   -23.417  2.00000
    85   -23.416  2.00000
    86   -23.412  2.00000
    87   -23.412  2.00000
    88   -23.412  2.00000
    89   -23.411  2.00000
    90   -23.409  2.00000
    91   -23.409  2.00000
    92   -23.408  2.00000
    93   -23.402  2.00000
    94   -23.396  2.00000
    95   -23.396  2.00000
    96   -23.395  2.00000
    97   -22.244  2.00000
    98   -22.241  2.00000
    99   -22.238  2.00000
   100   -22.237  2.00000
   101   -22.237  2.00000
   102   -22.236  2.00000
   103   -22.236  2.00000
   104   -22.235  2.00000
   105   -19.739  2.00000
   106   -19.733  2.00000
   107   -19.730  2.00000
   108   -19.728  2.00000
   109   -19.727  2.00000
   110   -19.721  2.00000
   111   -19.717  2.00000
   112   -19.717  2.00000
   113   -19.717  2.00000
   114   -19.716  2.00000
   115   -19.716  2.00000
   116   -19.716  2.00000
   117   -19.716  2.00000
   118   -19.715  2.00000
   119   -19.715  2.00000
   120   -19.715  2.00000
   121   -19.714  2.00000
   122   -19.714  2.00000
   123   -19.703  2.00000
   124   -19.703  2.00000
   125   -19.703  2.00000
   126   -19.702  2.00000
   127   -19.689  2.00000
   128   -19.685  2.00000
   129   -18.735  2.00000
   130   -18.726  2.00000
   131   -18.724  2.00000
   132   -18.723  2.00000
   133   -18.722  2.00000
   134   -18.713  2.00000
   135   -18.712  2.00000
   136   -18.712  2.00000
   137   -18.712  2.00000
   138   -18.711  2.00000
   139   -18.711  2.00000
   140   -18.710  2.00000
   141   -18.710  2.00000
   142   -18.710  2.00000
   143   -18.709  2.00000
   144   -18.709  2.00000
   145   -18.708  2.00000
   146   -18.707  2.00000
   147   -18.698  2.00000
   148   -18.697  2.00000
   149   -18.697  2.00000
   150   -18.696  2.00000
   151   -18.683  2.00000
   152   -18.671  2.00000
   153   -17.690  2.00000
   154   -17.681  2.00000
   155   -17.681  2.00000
   156   -17.679  2.00000
   157   -17.677  2.00000
   158   -17.668  2.00000
   159   -17.667  2.00000
   160   -17.667  2.00000
   161   -17.667  2.00000
   162   -17.667  2.00000
   163   -17.666  2.00000
   164   -17.666  2.00000
   165   -17.666  2.00000
   166   -17.666  2.00000
   167   -17.666  2.00000
   168   -17.665  2.00000
   169   -17.665  2.00000
   170   -17.663  2.00000
   171   -17.654  2.00000
   172   -17.654  2.00000
   173   -17.654  2.00000
   174   -17.653  2.00000
   175   -17.640  2.00000
   176   -17.627  2.00000
   177   -17.205  2.00000
   178   -17.199  2.00000
   179   -17.194  2.00000
   180   -17.193  2.00000
   181   -17.191  2.00000
   182   -17.188  2.00000
   183   -17.183  2.00000
   184   -17.182  2.00000
   185   -17.181  2.00000
   186   -17.180  2.00000
   187   -17.179  2.00000
   188   -17.179  2.00000
   189   -17.179  2.00000
   190   -17.179  2.00000
   191   -17.178  2.00000
   192   -17.178  2.00000
   193   -17.175  2.00000
   194   -17.174  2.00000
   195   -17.166  2.00000
   196   -17.165  2.00000
   197   -17.164  2.00000
   198   -17.164  2.00000
   199   -17.151  2.00000
   200   -17.147  2.00000
   201   -16.498  2.00000
   202   -16.488  2.00000
   203   -16.486  2.00000
   204   -16.485  2.00000
   205   -16.477  2.00000
   206   -16.476  2.00000
   207   -16.475  2.00000
   208   -16.475  2.00000
   209   -16.475  2.00000
   210   -16.474  2.00000
   211   -16.474  2.00000
   212   -16.474  2.00000
   213   -16.473  2.00000
   214   -16.473  2.00000
   215   -16.473  2.00000
   216   -16.473  2.00000
   217   -16.472  2.00000
   218   -16.461  2.00000
   219   -16.461  2.00000
   220   -16.461  2.00000
   221   -16.460  2.00000
   222   -16.456  2.00000
   223   -16.447  2.00000
   224   -16.419  2.00000
   225   -14.993  2.00000
   226   -14.966  2.00000
   227   -14.960  2.00000
   228   -14.959  2.00000
   229   -14.939  2.00000
   230   -14.933  2.00000
   231   -14.926  2.00000
   232   -14.924  2.00000
   233   -14.923  2.00000
   234   -14.923  2.00000
   235   -14.922  2.00000
   236   -14.921  2.00000
   237   -14.920  2.00000
   238   -14.920  2.00000
   239   -14.919  2.00000
   240   -14.915  2.00000
   241   -14.911  2.00000
   242   -14.908  2.00000
   243   -14.903  2.00000
   244   -14.883  2.00000
   245   -14.882  2.00000
   246   -14.880  2.00000
   247   -14.876  2.00000
   248   -14.868  2.00000
   249   -14.052  2.00000
   250   -14.044  2.00000
   251   -14.041  2.00000
   252   -14.040  2.00000
   253   -14.038  2.00000
   254   -14.034  2.00000
   255   -14.034  2.00000
   256   -14.033  2.00000
   257   -14.030  2.00000
   258   -14.030  2.00000
   259   -14.029  2.00000
   260   -14.027  2.00000
   261   -14.027  2.00000
   262   -14.027  2.00000
   263   -14.026  2.00000
   264   -14.022  2.00000
   265   -14.021  2.00000
   266   -14.017  2.00000
   267   -14.013  2.00000
   268   -14.012  2.00000
   269   -14.012  2.00000
   270   -14.010  2.00000
   271   -14.000  2.00000
   272   -13.997  2.00000
   273   -13.971  2.00000
   274   -13.968  2.00000
   275   -13.963  2.00000
   276   -13.955  2.00000
   277   -13.927  2.00000
   278   -13.921  2.00000
   279   -13.917  2.00000
   280   -13.914  2.00000
   281   -13.912  2.00000
   282   -13.912  2.00000
   283   -13.910  2.00000
   284   -13.909  2.00000
   285   -13.908  2.00000
   286   -13.906  2.00000
   287   -13.904  2.00000
   288   -13.899  2.00000
   289   -13.899  2.00000
   290   -13.891  2.00000
   291   -13.883  2.00000
   292   -13.846  2.00000
   293   -13.845  2.00000
   294   -13.843  2.00000
   295   -13.840  2.00000
   296   -13.834  2.00000
   297   -13.404  2.00000
   298   -13.400  2.00000
   299   -13.396  2.00000
   300   -13.393  2.00000
   301   -13.392  2.00000
   302   -13.389  2.00000
   303   -13.387  2.00000
   304   -13.382  2.00000
   305   -13.381  2.00000
   306   -13.380  2.00000
   307   -13.379  2.00000
   308   -13.378  2.00000
   309   -13.376  2.00000
   310   -13.374  2.00000
   311   -13.373  2.00000
   312   -13.366  2.00000
   313   -13.363  2.00000
   314   -13.362  2.00000
   315   -13.359  2.00000
   316   -13.351  2.00000
   317   -13.350  2.00000
   318   -13.348  2.00000
   319   -13.337  2.00000
   320   -13.315  2.00000
   321   -12.984  2.00000
   322   -12.927  2.00000
   323   -12.921  2.00000
   324   -12.919  2.00000
   325   -12.893  2.00000
   326   -12.888  2.00000
   327   -12.883  2.00000
   328   -12.883  2.00000
   329   -12.883  2.00000
   330   -12.882  2.00000
   331   -12.881  2.00000
   332   -12.881  2.00000
   333   -12.881  2.00000
   334   -12.880  2.00000
   335   -12.878  2.00000
   336   -12.872  2.00000
   337   -12.864  2.00000
   338   -12.856  2.00000
   339   -12.850  2.00000
   340   -12.815  2.00000
   341   -12.814  2.00000
   342   -12.812  2.00000
   343   -12.809  2.00000
   344   -12.806  2.00000
   345   -11.912  2.00000
   346   -11.910  2.00000
   347   -11.896  2.00000
   348   -11.893  2.00000
   349   -11.887  2.00000
   350   -11.880  2.00000
   351   -11.879  2.00000
   352   -11.877  2.00000
   353   -11.874  2.00000
   354   -11.872  2.00000
   355   -11.867  2.00000
   356   -11.865  2.00000
   357   -11.863  2.00000
   358   -11.858  2.00000
   359   -11.856  2.00000
   360   -11.853  2.00000
   361   -11.850  2.00000
   362   -11.843  2.00000
   363   -11.810  2.00000
   364   -11.807  2.00000
   365   -11.805  2.00000
   366   -11.803  2.00000
   367   -11.802  2.00000
   368   -11.799  2.00000
   369   -11.797  2.00000
   370   -11.796  2.00000
   371   -11.793  2.00000
   372   -11.792  2.00000
   373   -11.790  2.00000
   374   -11.786  2.00000
   375   -11.745  2.00000
   376   -11.744  2.00000
   377   -11.741  2.00000
   378   -11.735  2.00000
   379   -11.735  2.00000
   380   -11.734  2.00000
   381   -11.732  2.00000
   382   -11.732  2.00000
   383   -11.731  2.00000
   384   -11.726  2.00000
   385   -11.725  2.00000
   386   -11.722  2.00000
   387   -11.711  2.00000
   388   -11.707  2.00000
   389   -11.703  2.00000
   390   -11.702  2.00000
   391   -11.692  2.00000
   392   -11.690  2.00000
   393   -11.628  2.00000
   394   -11.625  2.00000
   395   -11.615  2.00000
   396   -11.613  2.00000
   397   -11.612  2.00000
   398   -11.608  2.00000
   399   -11.605  2.00000
   400   -11.604  2.00000
   401   -11.603  2.00000
   402   -11.603  2.00000
   403   -11.602  2.00000
   404   -11.601  2.00000
   405   -11.600  2.00000
   406   -11.600  2.00000
   407   -11.597  2.00000
   408   -11.594  2.00000
   409   -11.592  2.00000
   410   -11.587  2.00000
   411   -11.583  2.00000
   412   -11.577  2.00000
   413   -11.576  2.00000
   414   -11.576  2.00000
   415   -11.565  2.00000
   416   -11.561  2.00000
   417   -11.486  2.00000
   418   -11.482  2.00000
   419   -11.471  2.00000
   420   -11.470  2.00000
   421   -11.466  2.00000
   422   -11.465  2.00000
   423   -11.463  2.00000
   424   -11.460  2.00000
   425   -11.459  2.00000
   426   -11.458  2.00000
   427   -11.455  2.00000
   428   -11.454  2.00000
   429   -11.453  2.00000
   430   -11.453  2.00000
   431   -11.452  2.00000
   432   -11.450  2.00000
   433   -11.447  2.00000
   434   -11.441  2.00000
   435   -11.441  2.00000
   436   -11.439  2.00000
   437   -11.439  2.00000
   438   -11.429  2.00000
   439   -11.427  2.00000
   440   -11.402  2.00000
   441   -11.286  2.00000
   442   -11.279  2.00000
   443   -11.276  2.00000
   444   -11.275  2.00000
   445   -11.268  2.00000
   446   -11.267  2.00000
   447   -11.266  2.00000
   448   -11.265  2.00000
   449   -11.265  2.00000
   450   -11.264  2.00000
   451   -11.263  2.00000
   452   -11.262  2.00000
   453   -11.260  2.00000
   454   -11.259  2.00000
   455   -11.255  2.00000
   456   -11.254  2.00000
   457   -11.247  2.00000
   458   -11.246  2.00000
   459   -11.246  2.00000
   460   -11.244  2.00000
   461   -11.231  2.00000
   462   -11.229  2.00000
   463   -11.186  2.00000
   464   -11.142  2.00000
   465   -10.973  2.00000
   466   -10.970  2.00000
   467   -10.965  2.00000
   468   -10.963  2.00000
   469   -10.961  2.00000
   470   -10.960  2.00000
   471   -10.957  2.00000
   472   -10.955  2.00000
   473   -10.955  2.00000
   474   -10.953  2.00000
   475   -10.952  2.00000
   476   -10.951  2.00000
   477   -10.950  2.00000
   478   -10.949  2.00000
   479   -10.945  2.00000
   480   -10.944  2.00000
   481   -10.943  2.00000
   482   -10.941  2.00000
   483   -10.938  2.00000
   484   -10.936  2.00000
   485   -10.934  2.00000
   486   -10.932  2.00000
   487   -10.927  2.00000
   488   -10.925  2.00000
   489   -10.799  2.00000
   490   -10.796  2.00000
   491   -10.793  2.00000
   492   -10.792  2.00000
   493   -10.789  2.00000
   494   -10.787  2.00000
   495   -10.784  2.00000
   496   -10.782  2.00000
   497   -10.781  2.00000
   498   -10.780  2.00000
   499   -10.779  2.00000
   500   -10.777  2.00000
   501   -10.775  2.00000
   502   -10.775  2.00000
   503   -10.773  2.00000
   504   -10.772  2.00000
   505   -10.772  2.00000
   506   -10.769  2.00000
   507   -10.767  2.00000
   508   -10.765  2.00000
   509   -10.762  2.00000
   510   -10.761  2.00000
   511   -10.756  2.00000
   512   -10.754  2.00000
   513   -10.542  2.00000
   514   -10.537  2.00000
   515   -10.535  2.00000
   516   -10.533  2.00000
   517   -10.533  2.00000
   518   -10.531  2.00000
   519   -10.529  2.00000
   520   -10.528  2.00000
   521   -10.526  2.00000
   522   -10.525  2.00000
   523   -10.524  2.00000
   524   -10.522  2.00000
   525   -10.522  2.00000
   526   -10.521  2.00000
   527   -10.520  2.00000
   528   -10.518  2.00000
   529   -10.518  2.00000
   530   -10.517  2.00000
   531   -10.516  2.00000
   532   -10.515  2.00000
   533   -10.514  2.00000
   534   -10.512  2.00000
   535   -10.510  2.00000
   536   -10.509  2.00000
   537   -10.508  2.00000
   538   -10.505  2.00000
   539   -10.503  2.00000
   540   -10.502  2.00000
   541   -10.501  2.00000
   542   -10.499  2.00000
   543   -10.499  2.00000
   544   -10.498  2.00000
   545   -10.497  2.00000
   546   -10.496  2.00000
   547   -10.485  2.00000
   548   -10.479  2.00000
   549   -10.478  2.00000
   550   -10.477  2.00000
   551   -10.477  2.00000
   552   -10.476  2.00000
   553   -10.476  2.00000
   554   -10.475  2.00000
   555   -10.473  2.00000
   556   -10.471  2.00000
   557   -10.470  2.00000
   558   -10.459  2.00000
   559   -10.434  2.00000
   560   -10.391  2.00000
   561   -10.306  2.00000
   562   -10.304  2.00000
   563   -10.302  2.00000
   564   -10.301  2.00000
   565   -10.301  2.00000
   566   -10.301  2.00000
   567   -10.300  2.00000
   568   -10.299  2.00000
   569   -10.299  2.00000
   570   -10.299  2.00000
   571   -10.298  2.00000
   572   -10.284  2.00000
   573   -10.256  2.00000
   574   -10.254  2.00000
   575   -10.253  2.00000
   576   -10.253  2.00000
   577   -10.252  2.00000
   578   -10.250  2.00000
   579   -10.249  2.00000
   580   -10.248  2.00000
   581   -10.247  2.00000
   582   -10.242  2.00000
   583   -10.238  2.00000
   584   -10.216  2.00000
   585   -10.183  2.00000
   586   -10.180  2.00000
   587   -10.180  2.00000
   588   -10.179  2.00000
   589   -10.178  2.00000
   590   -10.175  2.00000
   591   -10.170  2.00000
   592   -10.161  2.00000
   593   -10.161  2.00000
   594   -10.157  2.00000
   595   -10.157  2.00000
   596   -10.148  2.00000
   597   -10.113  2.00000
   598   -10.112  2.00000
   599   -10.112  2.00000
   600   -10.110  2.00000
   601   -10.105  2.00000
   602   -10.105  2.00000
   603   -10.105  2.00000
   604   -10.104  2.00000
   605   -10.103  2.00000
   606   -10.101  2.00000
   607   -10.090  2.00000
   608   -10.087  2.00000
   609    -9.878  2.00000
   610    -9.876  2.00000
   611    -9.876  2.00000
   612    -9.874  2.00000
   613    -9.873  2.00000
   614    -9.871  2.00000
   615    -9.869  2.00000
   616    -9.868  2.00000
   617    -9.867  2.00000
   618    -9.866  2.00000
   619    -9.865  2.00000
   620    -9.860  2.00000
   621    -9.860  2.00000
   622    -9.858  2.00000
   623    -9.857  2.00000
   624    -9.856  2.00000
   625    -9.856  2.00000
   626    -9.855  2.00000
   627    -9.855  2.00000
   628    -9.854  2.00000
   629    -9.854  2.00000
   630    -9.853  2.00000
   631    -9.853  2.00000
   632    -9.851  2.00000
   633    -9.850  2.00000
   634    -9.849  2.00000
   635    -9.844  2.00000
   636    -9.842  2.00000
   637    -9.841  2.00000
   638    -9.830  2.00000
   639    -9.830  2.00000
   640    -9.829  2.00000
   641    -9.828  2.00000
   642    -9.825  2.00000
   643    -9.815  2.00000
   644    -9.813  2.00000
   645    -9.811  2.00000
   646    -9.810  2.00000
   647    -9.809  2.00000
   648    -9.807  2.00000
   649    -9.792  2.00000
   650    -9.790  2.00000
   651    -9.787  2.00000
   652    -9.771  2.00000
   653    -9.770  2.00000
   654    -9.768  2.00000
   655    -9.717  2.00000
   656    -9.716  2.00000
   657    -9.716  2.00000
   658    -9.715  2.00000
   659    -9.713  2.00000
   660    -9.712  2.00000
   661    -9.693  2.00000
   662    -9.693  2.00000
   663    -9.693  2.00000
   664    -9.692  2.00000
   665    -9.692  2.00000
   666    -9.691  2.00000
   667    -9.643  2.00000
   668    -9.642  2.00000
   669    -9.642  2.00000
   670    -9.600  2.00000
   671    -9.599  2.00000
   672    -9.599  2.00000
   673    -9.585  2.00000
   674    -9.583  2.00000
   675    -9.577  2.00000
   676    -9.574  2.00000
   677    -9.573  2.00000
   678    -9.571  2.00000
   679    -9.570  2.00000
   680    -9.567  2.00000
   681    -9.566  2.00000
   682    -9.565  2.00000
   683    -9.565  2.00000
   684    -9.564  2.00000
   685    -9.563  2.00000
   686    -9.562  2.00000
   687    -9.561  2.00000
   688    -9.559  2.00000
   689    -9.558  2.00000
   690    -9.557  2.00000
   691    -9.557  2.00000
   692    -9.556  2.00000
   693    -9.556  2.00000
   694    -9.555  2.00000
   695    -9.555  2.00000
   696    -9.554  2.00000
   697    -9.553  2.00000
   698    -9.552  2.00000
   699    -9.551  2.00000
   700    -9.549  2.00000
   701    -9.546  2.00000
   702    -9.544  2.00000
   703    -9.544  2.00000
   704    -9.543  2.00000
   705    -9.543  2.00000
   706    -9.541  2.00000
   707    -9.532  2.00000
   708    -9.531  2.00000
   709    -9.515  2.00000
   710    -9.515  2.00000
   711    -9.513  2.00000
   712    -9.511  2.00000
   713    -9.510  2.00000
   714    -9.507  2.00000
   715    -9.504  2.00000
   716    -9.493  2.00000
   717    -9.489  2.00000
   718    -9.488  2.00000
   719    -9.488  2.00000
   720    -9.487  2.00000
   721    -9.484  2.00000
   722    -9.480  2.00000
   723    -9.478  2.00000
   724    -9.476  2.00000
   725    -9.472  2.00000
   726    -9.462  2.00000
   727    -9.461  2.00000
   728    -9.458  2.00000
   729    -9.458  2.00000
   730    -9.456  2.00000
   731    -9.456  2.00000
   732    -9.453  2.00000
   733    -9.453  2.00000
   734    -9.429  2.00000
   735    -9.426  2.00000
   736    -9.425  2.00000
   737    -9.402  2.00000
   738    -9.400  2.00000
   739    -9.398  2.00000
   740    -9.376  2.00000
   741    -9.375  2.00000
   742    -9.374  2.00000
   743    -9.374  2.00000
   744    -9.372  2.00000
   745    -9.264  2.00000
   746    -9.260  2.00000
   747    -9.255  2.00000
   748    -9.252  2.00000
   749    -9.249  2.00000
   750    -9.247  2.00000
   751    -9.242  2.00000
   752    -9.241  2.00000
   753    -9.235  2.00000
   754    -9.233  2.00000
   755    -9.231  2.00000
   756    -9.229  2.00000
   757    -9.176  2.00000
   758    -9.174  2.00000
   759    -9.172  2.00000
   760    -9.172  2.00000
   761    -9.171  2.00000
   762    -9.168  2.00000
   763    -9.166  2.00000
   764    -9.166  2.00000
   765    -9.165  2.00000
   766    -9.165  2.00000
   767    -9.164  2.00000
   768    -9.163  2.00000
   769    -9.052  2.00000
   770    -9.047  2.00000
   771    -9.043  2.00000
   772    -9.041  2.00000
   773    -9.038  2.00000
   774    -9.037  2.00000
   775    -9.036  2.00000
   776    -9.029  2.00000
   777    -9.027  2.00000
   778    -9.023  2.00000
   779    -9.020  2.00000
   780    -9.016  2.00000
   781    -9.014  2.00000
   782    -9.014  2.00000
   783    -9.009  2.00000
   784    -9.008  2.00000
   785    -9.004  2.00000
   786    -9.000  2.00000
   787    -8.997  2.00000
   788    -8.993  2.00000
   789    -8.991  2.00000
   790    -8.979  2.00000
   791    -8.973  2.00000
   792    -8.947  2.00000
   793    -8.857  2.00000
   794    -8.851  2.00000
   795    -8.848  2.00000
   796    -8.842  2.00000
   797    -8.839  2.00000
   798    -8.830  2.00000
   799    -8.820  2.00000
   800    -8.814  2.00000
   801    -8.809  2.00000
   802    -8.798  2.00000
   803    -8.787  2.00000
   804    -8.781  2.00000
   805    -8.778  2.00000
   806    -8.773  2.00000
   807    -8.770  2.00000
   808    -8.769  2.00000
   809    -8.761  2.00000
   810    -8.749  2.00000
   811    -8.744  2.00000
   812    -8.736  2.00000
   813    -8.686  2.00000
   814    -8.679  2.00000
   815    -8.676  2.00000
   816    -8.675  2.00000
   817    -8.672  2.00000
   818    -8.671  2.00000
   819    -8.668  2.00000
   820    -8.666  2.00000
   821    -8.663  2.00000
   822    -8.637  2.00000
   823    -8.608  2.00000
   824    -8.607  2.00000
   825    -8.606  2.00000
   826    -8.599  2.00000
   827    -8.598  2.00000
   828    -8.597  2.00000
   829    -8.568  2.00000
   830    -8.565  2.00000
   831    -8.564  2.00000
   832    -8.561  2.00000
   833    -8.557  2.00000
   834    -8.553  2.00000
   835    -8.541  2.00000
   836    -8.534  2.00000
   837    -8.532  2.00000
   838    -8.528  2.00000
   839    -8.522  2.00000
   840    -8.515  2.00000
   841    -8.505  2.00000
   842    -8.501  2.00000
   843    -8.496  2.00000
   844    -8.491  2.00000
   845    -8.490  2.00000
   846    -8.489  2.00000
   847    -8.487  2.00000
   848    -8.486  2.00000
   849    -8.481  2.00000
   850    -8.431  2.00000
   851    -8.429  2.00000
   852    -8.427  2.00000
   853    -8.426  2.00000
   854    -8.424  2.00000
   855    -8.420  2.00000
   856    -8.407  2.00000
   857    -8.407  2.00000
   858    -8.405  2.00000
   859    -8.402  2.00000
   860    -8.401  2.00000
   861    -8.400  2.00000
   862    -8.399  2.00000
   863    -8.399  2.00000
   864    -8.397  2.00000
   865    -8.373  2.00000
   866    -8.369  2.00000
   867    -8.368  2.00000
   868    -8.343  2.00000
   869    -8.334  2.00000
   870    -8.327  2.00000
   871    -8.324  2.00000
   872    -8.321  2.00000
   873    -8.316  2.00000
   874    -8.315  2.00000
   875    -8.297  2.00000
   876    -8.288  2.00000
   877    -8.235  2.00000
   878    -8.228  2.00000
   879    -8.225  2.00000
   880    -8.221  2.00000
   881    -8.218  2.00000
   882    -8.210  2.00000
   883    -8.206  2.00000
   884    -8.198  2.00000
   885    -8.195  2.00000
   886    -8.191  2.00000
   887    -8.178  2.00000
   888    -8.167  2.00000
   889    -8.070  2.00000
   890    -8.061  2.00000
   891    -8.046  2.00000
   892    -8.043  2.00000
   893    -8.028  2.00000
   894    -8.018  2.00000
   895    -7.992  2.00000
   896    -7.981  2.00000
   897    -7.979  2.00000
   898    -7.975  2.00000
   899    -7.974  2.00000
   900    -7.970  2.00000
   901    -7.969  2.00000
   902    -7.964  2.00000
   903    -7.960  2.00000
   904    -7.939  2.00000
   905    -7.933  2.00000
   906    -7.933  2.00000
   907    -7.927  2.00000
   908    -7.922  2.00000
   909    -7.912  2.00000
   910    -7.910  2.00000
   911    -7.905  2.00000
   912    -7.902  2.00000
   913    -7.897  2.00000
   914    -7.892  2.00000
   915    -7.889  2.00000
   916    -7.875  2.00000
   917    -7.871  2.00000
   918    -7.866  2.00000
   919    -7.858  2.00000
   920    -7.852  2.00000
   921    -7.851  2.00000
   922    -7.831  2.00000
   923    -7.826  2.00000
   924    -7.815  2.00000
   925    -7.697  2.00000
   926    -7.696  2.00000
   927    -7.694  2.00000
   928    -7.691  2.00000
   929    -7.687  2.00000
   930    -7.687  2.00000
   931    -7.685  2.00000
   932    -7.684  2.00000
   933    -7.683  2.00000
   934    -7.681  2.00000
   935    -7.678  2.00000
   936    -7.677  2.00000
   937    -7.675  2.00000
   938    -7.675  2.00000
   939    -7.673  2.00000
   940    -7.672  2.00000
   941    -7.667  2.00000
   942    -7.666  2.00000
   943    -7.664  2.00000
   944    -7.664  2.00000
   945    -7.662  2.00000
   946    -7.662  2.00000
   947    -7.662  2.00000
   948    -7.662  2.00000
   949    -7.661  2.00000
   950    -7.661  2.00000
   951    -7.661  2.00000
   952    -7.660  2.00000
   953    -7.660  2.00000
   954    -7.659  2.00000
   955    -7.650  2.00000
   956    -7.650  2.00000
   957    -7.649  2.00000
   958    -7.649  2.00000
   959    -7.636  2.00000
   960    -7.631  2.00000
   961    -7.502  2.00000
   962    -7.501  2.00000
   963    -7.495  2.00000
   964    -7.494  2.00000
   965    -7.493  2.00000
   966    -7.474  2.00000
   967    -7.473  2.00000
   968    -7.472  2.00000
   969    -7.465  2.00000
   970    -7.463  2.00000
   971    -7.463  2.00000
   972    -7.442  2.00000
   973    -7.441  2.00000
   974    -7.438  2.00000
   975    -7.436  2.00000
   976    -7.434  2.00000
   977    -7.376  2.00000
   978    -7.372  2.00000
   979    -7.368  2.00000
   980    -7.368  2.00000
   981    -7.366  2.00000
   982    -7.364  2.00000
   983    -7.362  2.00000
   984    -7.361  2.00000
   985    -7.360  2.00000
   986    -7.359  2.00000
   987    -7.359  2.00000
   988    -7.357  2.00000
   989    -7.357  2.00000
   990    -7.355  2.00000
   991    -7.354  2.00000
   992    -7.354  2.00000
   993    -7.352  2.00000
   994    -7.352  2.00000
   995    -7.350  2.00000
   996    -7.350  2.00000
   997    -7.349  2.00000
   998    -7.349  2.00000
   999    -7.348  2.00000
  1000    -7.347  2.00000
  1001    -7.346  2.00000
  1002    -7.345  2.00000
  1003    -7.343  2.00000
  1004    -7.342  2.00000
  1005    -7.339  2.00000
  1006    -7.337  2.00000
  1007    -7.332  2.00000
  1008    -7.330  2.00000
  1009    -7.086  2.00000
  1010    -7.064  2.00000
  1011    -7.063  2.00000
  1012    -7.062  2.00000
  1013    -7.043  2.00000
  1014    -7.042  2.00000
  1015    -7.041  2.00000
  1016    -7.023  2.00000
  1017    -6.894  2.00000
  1018    -6.890  2.00000
  1019    -6.884  2.00000
  1020    -6.882  2.00000
  1021    -6.880  2.00000
  1022    -6.877  2.00000
  1023    -6.876  2.00000
  1024    -6.870  2.00000
  1025    -6.869  2.00000
  1026    -6.863  2.00000
  1027    -6.863  2.00000
  1028    -6.862  2.00000
  1029    -6.861  2.00000
  1030    -6.859  2.00000
  1031    -6.857  2.00000
  1032    -6.851  2.00000
  1033    -6.850  2.00000
  1034    -6.846  2.00000
  1035    -6.846  2.00000
  1036    -6.843  2.00000
  1037    -6.839  2.00000
  1038    -6.838  2.00000
  1039    -6.828  2.00000
  1040    -6.827  2.00000
  1041    -6.683  2.00000
  1042    -6.682  2.00000
  1043    -6.676  2.00000
  1044    -6.657  2.00000
  1045    -6.655  2.00000
  1046    -6.649  2.00000
  1047    -6.648  2.00000
  1048    -6.648  2.00000
  1049    -6.642  2.00000
  1050    -6.639  2.00000
  1051    -6.634  2.00000
  1052    -6.631  2.00000
  1053    -6.629  2.00000
  1054    -6.621  2.00000
  1055    -6.619  2.00000
  1056    -6.618  2.00000
  1057    -6.616  2.00000
  1058    -6.613  2.00000
  1059    -6.610  2.00000
  1060    -6.608  2.00000
  1061    -6.605  2.00000
  1062    -6.603  2.00000
  1063    -6.601  2.00000
  1064    -6.601  2.00000
  1065    -6.598  2.00000
  1066    -6.597  2.00000
  1067    -6.595  2.00000
  1068    -6.594  2.00000
  1069    -6.587  2.00000
  1070    -6.585  2.00000
  1071    -6.582  2.00000
  1072    -6.580  2.00000
  1073    -6.577  2.00000
  1074    -6.574  2.00000
  1075    -6.574  2.00000
  1076    -6.572  2.00000
  1077    -6.567  2.00000
  1078    -6.566  2.00000
  1079    -6.565  2.00000
  1080    -6.558  2.00000
  1081    -6.554  2.00000
  1082    -6.552  2.00000
  1083    -6.552  2.00000
  1084    -6.549  2.00000
  1085    -6.543  2.00000
  1086    -6.535  2.00000
  1087    -6.534  2.00000
  1088    -6.533  2.00000
  1089    -6.319  2.00000
  1090    -6.318  2.00000
  1091    -6.311  2.00000
  1092    -6.308  2.00000
  1093    -6.307  2.00000
  1094    -6.307  2.00000
  1095    -6.306  2.00000
  1096    -6.305  2.00000
  1097    -6.302  2.00000
  1098    -6.299  2.00000
  1099    -6.296  2.00000
  1100    -6.292  2.00000
  1101    -6.288  2.00000
  1102    -6.285  2.00000
  1103    -6.285  2.00000
  1104    -6.285  2.00000
  1105    -6.284  2.00000
  1106    -6.283  2.00000
  1107    -6.283  2.00000
  1108    -6.283  2.00000
  1109    -6.282  2.00000
  1110    -6.281  2.00000
  1111    -6.281  2.00000
  1112    -6.279  2.00000
  1113    -6.278  2.00000
  1114    -6.277  2.00000
  1115    -6.271  2.00000
  1116    -6.270  2.00000
  1117    -6.270  2.00000
  1118    -6.261  2.00000
  1119    -6.258  2.00000
  1120    -6.256  2.00000
  1121    -6.256  2.00000
  1122    -6.255  2.00000
  1123    -6.250  2.00000
  1124    -6.247  2.00000
  1125    -6.244  2.00000
  1126    -6.243  2.00000
  1127    -6.239  2.00000
  1128    -6.235  2.00000
  1129    -5.859  2.00000
  1130    -5.855  2.00000
  1131    -5.853  2.00000
  1132    -5.852  2.00000
  1133    -5.849  2.00000
  1134    -5.847  2.00000
  1135    -5.845  2.00000
  1136    -5.843  2.00000
  1137    -5.843  2.00000
  1138    -5.841  2.00000
  1139    -5.840  2.00000
  1140    -5.839  2.00000
  1141    -5.839  2.00000
  1142    -5.838  2.00000
  1143    -5.837  2.00000
  1144    -5.835  2.00000
  1145    -5.835  2.00000
  1146    -5.834  2.00000
  1147    -5.828  2.00000
  1148    -5.826  2.00000
  1149    -5.822  2.00000
  1150    -5.819  2.00000
  1151    -5.818  2.00000
  1152    -5.816  2.00000
  1153    -2.863  0.00000
  1154    -2.858  0.00000
  1155    -2.854  0.00000
  1156    -2.852  0.00000
  1157    -2.850  0.00000
  1158    -2.843  0.00000
  1159    -2.841  0.00000
  1160    -2.840  0.00000
  1161    -2.840  0.00000
  1162    -2.840  0.00000
  1163    -2.840  0.00000
  1164    -2.839  0.00000
  1165    -2.839  0.00000
  1166    -2.838  0.00000
  1167    -2.838  0.00000
  1168    -2.838  0.00000
  1169    -2.837  0.00000
  1170    -2.837  0.00000
  1171    -2.826  0.00000
  1172    -2.826  0.00000
  1173    -2.826  0.00000
  1174    -2.825  0.00000
  1175    -2.812  0.00000
  1176    -2.805  0.00000
  1177    -2.192  0.00000
  1178    -2.183  0.00000
  1179    -2.182  0.00000
  1180    -2.181  0.00000
  1181    -2.179  0.00000
  1182    -2.174  0.00000
  1183    -2.171  0.00000
  1184    -2.169  0.00000
  1185    -2.169  0.00000
  1186    -2.169  0.00000
  1187    -2.169  0.00000
  1188    -2.168  0.00000
  1189    -2.167  0.00000
  1190    -2.167  0.00000
  1191    -2.167  0.00000
  1192    -2.166  0.00000
  1193    -2.166  0.00000
  1194    -2.165  0.00000
  1195    -2.155  0.00000
  1196    -2.155  0.00000
  1197    -2.154  0.00000
  1198    -2.154  0.00000
  1199    -2.140  0.00000
  1200    -2.135  0.00000
  1201    -1.085  0.00000
  1202    -1.085  0.00000
  1203    -1.076  0.00000
  1204    -1.073  0.00000
  1205    -1.072  0.00000
  1206    -1.068  0.00000
  1207    -1.066  0.00000
  1208    -1.064  0.00000
  1209    -1.062  0.00000
  1210    -1.058  0.00000
  1211    -1.058  0.00000
  1212    -1.057  0.00000
  1213    -1.057  0.00000
  1214    -1.056  0.00000
  1215    -1.056  0.00000
  1216    -1.052  0.00000
  1217    -1.050  0.00000
  1218    -1.048  0.00000
  1219    -1.044  0.00000
  1220    -1.042  0.00000
  1221    -1.039  0.00000
  1222    -1.038  0.00000
  1223    -1.026  0.00000
  1224    -1.025  0.00000
  1225    -0.497  0.00000
  1226    -0.488  0.00000
  1227    -0.486  0.00000
  1228    -0.485  0.00000
  1229    -0.484  0.00000
  1230    -0.478  0.00000
  1231    -0.477  0.00000
  1232    -0.475  0.00000
  1233    -0.474  0.00000
  1234    -0.473  0.00000
  1235    -0.473  0.00000
  1236    -0.472  0.00000
  1237    -0.472  0.00000
  1238    -0.471  0.00000
  1239    -0.471  0.00000
  1240    -0.470  0.00000
  1241    -0.469  0.00000
  1242    -0.467  0.00000
  1243    -0.459  0.00000
  1244    -0.459  0.00000
  1245    -0.458  0.00000
  1246    -0.457  0.00000
  1247    -0.444  0.00000
  1248    -0.439  0.00000
  1249     0.922  0.00000
  1250     0.923  0.00000
  1251     0.931  0.00000
  1252     0.932  0.00000
  1253     0.936  0.00000
  1254     0.941  0.00000
  1255     0.947  0.00000
  1256     0.949  0.00000
  1257     0.951  0.00000
  1258     0.960  0.00000
  1259     0.960  0.00000
  1260     0.961  0.00000
  1261     0.961  0.00000
  1262     0.962  0.00000
  1263     0.962  0.00000
  1264     0.971  0.00000
  1265     0.973  0.00000
  1266     0.975  0.00000
  1267     0.981  0.00000
  1268     0.986  0.00000
  1269     0.991  0.00000
  1270     0.992  0.00000
  1271     1.000  0.00000
  1272     1.002  0.00000
  1273     2.391  0.00000
  1274     2.392  0.00000
  1275     2.400  0.00000
  1276     2.402  0.00000
  1277     2.405  0.00000
  1278     2.410  0.00000
  1279     2.413  0.00000
  1280     2.415  0.00000
  1281     2.417  0.00000
  1282     2.424  0.00000
  1283     2.425  0.00000
  1284     2.426  0.00000
  1285     2.426  0.00000
  1286     2.427  0.00000
  1287     2.427  0.00000
  1288     2.435  0.00000
  1289     2.437  0.00000
  1290     2.439  0.00000
  1291     2.441  0.00000
  1292     2.446  0.00000
  1293     2.450  0.00000
  1294     2.452  0.00000
  1295     2.462  0.00000
  1296     2.464  0.00000
  1297     3.306  0.00000
  1298     3.310  0.00000
  1299     3.314  0.00000
  1300     3.314  0.00000
  1301     3.315  0.00000
  1302     3.315  0.00000
  1303     3.315  0.00000
  1304     3.315  0.00000
  1305     3.790  0.00000
  1306     3.794  0.00000
  1307     3.799  0.00000
  1308     3.801  0.00000
  1309     3.802  0.00000
  1310     3.805  0.00000
  1311     3.809  0.00000
  1312     3.811  0.00000
  1313     3.812  0.00000
  1314     3.814  0.00000
  1315     3.814  0.00000
  1316     3.815  0.00000
  1317     3.815  0.00000
  1318     3.815  0.00000
  1319     3.816  0.00000
  1320     3.817  0.00000
  1321     3.818  0.00000
  1322     3.820  0.00000
  1323     3.827  0.00000
  1324     3.828  0.00000
  1325     3.829  0.00000
  1326     3.830  0.00000
  1327     3.843  0.00000
  1328     3.844  0.00000
  1329     4.330  0.00000
  1330     4.337  0.00000
  1331     4.338  0.00000
  1332     4.338  0.00000
  1333     4.352  0.00000
  1334     4.357  0.00000
  1335     4.357  0.00000
  1336     4.358  0.00000
  1337     4.366  0.00000
  1338     4.370  0.00000
  1339     4.374  0.00000
  1340     4.375  0.00000
  1341     4.375  0.00000
  1342     4.376  0.00000
  1343     4.376  0.00000
  1344     4.377  0.00000
  1345     4.389  0.00000
  1346     4.391  0.00000
  1347     4.392  0.00000
  1348     4.393  0.00000
  1349     4.408  0.00000
  1350     4.415  0.00000
  1351     4.415  0.00000
  1352     4.415  0.00000
  1353     9.146  0.00000
  1354     9.148  0.00000
  1355     9.151  0.00000
  1356     9.153  0.00000
  1357     9.155  0.00000
  1358     9.155  0.00000
  1359     9.156  0.00000
  1360     9.157  0.00000
  1361     9.157  0.00000
  1362     9.158  0.00000
  1363     9.159  0.00000
  1364     9.159  0.00000
  1365     9.159  0.00000
  1366     9.160  0.00000
  1367     9.160  0.00000
  1368     9.160  0.00000
  1369     9.161  0.00000
  1370     9.162  0.00000
  1371     9.162  0.00000
  1372     9.162  0.00000
  1373     9.164  0.00000
  1374     9.165  0.00000
  1375     9.166  0.00000
  1376     9.166  0.00000
  1377     9.247  0.00000
  1378     9.266  0.00000
  1379     9.304  0.00000
  1380     9.306  0.00000
  1381     9.310  0.00000
  1382     9.312  0.00000
  1383     9.318  0.00000
  1384     9.322  0.00000
  1385     9.328  0.00000
  1386     9.335  0.00000
  1387     9.337  0.00000
  1388     9.345  0.00000
  1389     9.348  0.00000
  1390     9.353  0.00000
  1391     9.354  0.00000
  1392     9.358  0.00000
  1393     9.824  0.00000
  1394     9.834  0.00000
  1395     9.976  0.00000
  1396     9.979  0.00000
  1397     9.980  0.00000
  1398     9.987  0.00000
  1399     9.988  0.00000
  1400     9.991  0.00000
  1401     9.998  0.00000
  1402     9.999  0.00000
  1403    10.002  0.00000
  1404    10.005  0.00000
  1405    10.022  0.00000
  1406    10.042  0.00000
  1407    10.075  0.00000
  1408    10.077  0.00000
  1409    10.078  0.00000
  1410    10.081  0.00000
  1411    10.081  0.00000
  1412    10.083  0.00000
  1413    10.084  0.00000
  1414    10.086  0.00000
  1415    10.088  0.00000
  1416    10.089  0.00000
  1417    10.309  0.00000
  1418    10.334  0.00000
  1419    10.417  0.00000
  1420    10.420  0.00000
  1421    10.424  0.00000
  1422    10.471  0.00000
  1423    10.475  0.00000
  1424    10.515  0.00000
  1425    10.687  0.00000
  1426    10.760  0.00000
  1427    11.548  0.00000
  1428    11.557  0.00000
  1429    11.558  0.00000
  1430    11.561  0.00000
  1431    11.582  0.00000
  1432    11.613  0.00000
  1433    11.622  0.00000
  1434    11.626  0.00000
  1435    11.630  0.00000
  1436    11.635  0.00000
  1437    11.639  0.00000
  1438    11.644  0.00000
  1439    11.647  0.00000
  1440    11.653  0.00000
  1441    11.657  0.00000
  1442    11.665  0.00000
  1443    11.667  0.00000
  1444    11.668  0.00000
  1445    11.695  0.00000
  1446    11.702  0.00000
  1447    11.711  0.00000
  1448    11.768  0.00000
  1449    11.871  0.00000
  1450    11.880  0.00000
  1451    11.911  0.00000
  1452    12.350  0.00000
  1453    12.352  0.00000
  1454    12.355  0.00000
  1455    12.356  0.00000
  1456    12.358  0.00000
  1457    12.359  0.00000
  1458    12.359  0.00000
  1459    12.360  0.00000
  1460    12.361  0.00000
  1461    12.361  0.00000
  1462    12.364  0.00000
  1463    12.365  0.00000
  1464    12.366  0.00000
  1465    12.366  0.00000
  1466    12.367  0.00000
  1467    12.368  0.00000
  1468    12.369  0.00000
  1469    12.370  0.00000
  1470    12.371  0.00000
  1471    12.371  0.00000
  1472    12.373  0.00000
  1473    12.378  0.00000
  1474    12.381  0.00000
  1475    12.381  0.00000
  1476    12.509  0.00000
  1477    12.901  0.00000
  1478    12.975  0.00000
  1479    12.975  0.00000
  1480    12.979  0.00000
  1481    12.994  0.00000
  1482    12.999  0.00000
  1483    13.015  0.00000
  1484    13.018  0.00000
  1485    13.019  0.00000
  1486    13.025  0.00000
  1487    13.031  0.00000
  1488    13.034  0.00000
  1489    13.035  0.00000
  1490    13.038  0.00000
  1491    13.039  0.00000
  1492    13.046  0.00000
  1493    13.049  0.00000
  1494    13.050  0.00000
  1495    13.065  0.00000
  1496    13.075  0.00000
  1497    13.080  0.00000
  1498    13.110  0.00000
  1499    13.374  0.00000
  1500    13.802  0.00000
  1501    14.440  0.00000
  1502    14.451  0.00000
  1503    14.460  0.00000
  1504    14.462  0.00000
  1505    14.463  0.00000
  1506    14.464  0.00000
  1507    14.464  0.00000
  1508    14.465  0.00000
  1509    14.468  0.00000
  1510    14.471  0.00000
  1511    14.475  0.00000
  1512    14.476  0.00000
  1513    14.481  0.00000
  1514    14.481  0.00000
  1515    14.482  0.00000
  1516    14.482  0.00000
  1517    14.483  0.00000
  1518    14.483  0.00000
  1519    14.495  0.00000
  1520    14.495  0.00000
  1521    14.500  0.00000
  1522    14.509  0.00000
  1523    15.010  0.00000
  1524    16.228  0.00000
  1525    16.361  0.00000
  1526    16.792  0.00000
  1527    16.800  0.00000
  1528    16.802  0.00000
  1529    16.805  0.00000
  1530    16.810  0.00000
  1531    16.811  0.00000
  1532    16.816  0.00000
  1533    16.817  0.00000
  1534    16.817  0.00000
  1535    16.818  0.00000
  1536    16.818  0.00000
  1537    16.818  0.00000
  1538    16.819  0.00000
  1539    16.820  0.00000
  1540    16.821  0.00000
  1541    16.825  0.00000
  1542    16.831  0.00000
  1543    16.834  0.00000
  1544    16.836  0.00000
  1545    16.838  0.00000
  1546    16.850  0.00000
  1547    16.912  0.00000
  1548    17.005  0.00000
  1549    17.113  0.00000
  1550    17.182  0.00000
  1551    17.191  0.00000
  1552    17.193  0.00000
  1553    17.195  0.00000
  1554    17.201  0.00000
  1555    17.202  0.00000
  1556    17.204  0.00000
  1557    17.205  0.00000
  1558    17.206  0.00000
  1559    17.206  0.00000
  1560    17.207  0.00000
  1561    17.207  0.00000
  1562    17.208  0.00000
  1563    17.209  0.00000
  1564    17.211  0.00000
  1565    17.213  0.00000
  1566    17.221  0.00000
  1567    17.221  0.00000
  1568    17.222  0.00000
  1569    17.223  0.00000
  1570    17.238  0.00000
  1571    17.663  0.00000
  1572    17.786  0.00000
  1573    17.797  0.00000
  1574    17.804  0.00000
  1575    17.808  0.00000
  1576    17.809  0.00000
  1577    17.811  0.00000
  1578    17.812  0.00000
  1579    17.814  0.00000
  1580    17.821  0.00000
  1581    17.822  0.00000
  1582    17.824  0.00000
  1583    17.825  0.00000
  1584    17.831  0.00000
  1585    17.833  0.00000
  1586    17.835  0.00000
  1587    17.835  0.00000
  1588    17.835  0.00000
  1589    17.838  0.00000
  1590    17.848  0.00000
  1591    17.849  0.00000
  1592    17.865  0.00000
  1593    18.556  0.00000
  1594    18.593  0.00000
  1595    18.671  0.00000
  1596    18.681  0.00000
  1597    18.682  0.00000
  1598    18.683  0.00000
  1599    18.684  0.00000
  1600    18.692  0.00000
  1601    18.693  0.00000
  1602    18.694  0.00000
  1603    18.694  0.00000
  1604    18.694  0.00000
  1605    18.695  0.00000
  1606    18.695  0.00000
  1607    18.696  0.00000
  1608    18.696  0.00000
  1609    18.696  0.00000
  1610    18.697  0.00000
  1611    18.698  0.00000
  1612    18.708  0.00000
  1613    18.708  0.00000
  1614    18.708  0.00000
  1615    18.709  0.00000
  1616    18.723  0.00000
  1617    18.764  0.00000
  1618    18.802  0.00000
  1619    19.132  0.00000
  1620    19.152  0.00000
  1621    19.243  0.00000
  1622    21.502  0.00000
  1623    21.512  0.00000
  1624    21.514  0.00000
  1625    21.516  0.00000
  1626    21.520  0.00000
  1627    21.523  0.00000
  1628    21.524  0.00000
  1629    21.526  0.00000
  1630    21.527  0.00000
  1631    21.527  0.00000
  1632    21.528  0.00000
  1633    21.528  0.00000
  1634    21.529  0.00000
  1635    21.529  0.00000
  1636    21.530  0.00000
  1637    21.531  0.00000
  1638    21.533  0.00000
  1639    21.540  0.00000
  1640    21.542  0.00000
  1641    21.543  0.00000
  1642    21.544  0.00000
  1643    21.558  0.00000
  1644    21.860  0.00000
  1645    21.872  0.00000
  1646    21.877  0.00000
  1647    21.880  0.00000
  1648    21.883  0.00000
  1649    21.883  0.00000
  1650    21.884  0.00000
  1651    21.885  0.00000
  1652    21.886  0.00000
  1653    21.889  0.00000
  1654    21.891  0.00000
  1655    21.891  0.00000
  1656    21.892  0.00000
  1657    21.892  0.00000
  1658    21.892  0.00000
  1659    21.893  0.00000
  1660    21.898  0.00000
  1661    21.900  0.00000
  1662    21.905  0.00000
  1663    21.905  0.00000
  1664    21.910  0.00000
  1665    21.918  0.00000
  1666    21.919  0.00000
  1667    21.926  0.00000
  1668    21.935  0.00000
  1669    21.937  0.00000
  1670    21.939  0.00000
  1671    21.946  0.00000
  1672    21.948  0.00000
  1673    21.951  0.00000
  1674    21.952  0.00000
  1675    21.953  0.00000
  1676    21.954  0.00000
  1677    21.955  0.00000
  1678    21.956  0.00000
  1679    21.960  0.00000
  1680    21.960  0.00000
  1681    21.961  0.00000
  1682    21.962  0.00000
  1683    21.964  0.00000
  1684    21.967  0.00000
  1685    21.968  0.00000
  1686    21.974  0.00000
  1687    21.976  0.00000
  1688    21.979  0.00000
  1689    22.080  0.00000
  1690    22.096  0.00000
  1691    22.238  0.00000
  1692    22.440  0.00000
  1693    22.452  0.00000
  1694    22.457  0.00000
  1695    22.460  0.00000
  1696    22.461  0.00000
  1697    22.464  0.00000
  1698    22.464  0.00000
  1699    22.465  0.00000
  1700    22.466  0.00000
  1701    22.467  0.00000
  1702    22.471  0.00000
  1703    22.471  0.00000
  1704    22.472  0.00000
  1705    22.473  0.00000
  1706    22.474  0.00000
  1707    22.474  0.00000
  1708    22.478  0.00000
  1709    22.479  0.00000
  1710    22.486  0.00000
  1711    22.486  0.00000
  1712    22.501  0.00000
  1713    22.685  0.00000
  1714    22.746  0.00000
  1715    23.662  0.00000
  1716    23.709  0.00000
  1717    23.711  0.00000
  1718    24.223  0.00000
  1719    24.226  0.00000
  1720    24.236  0.00000
  1721    24.236  0.00000
  1722    24.237  0.00000
  1723    24.237  0.00000
  1724    24.238  0.00000
  1725    24.238  0.00000
  1726    24.239  0.00000
  1727    24.250  0.00000
  1728    24.250  0.00000
  1729    24.250  0.00000
  1730    24.261  0.00000
  1731    24.261  0.00000
  1732    24.262  0.00000
  1733    24.263  0.00000
  1734    24.264  0.00000
  1735    24.264  0.00000
  1736    24.265  0.00000
  1737    24.275  0.00000
  1738    24.276  0.00000
  1739    24.454  0.00000
  1740    24.578  0.00000
  1741    24.733  0.00000
  1742    24.793  0.00000
  1743    24.804  0.00000
  1744    24.815  0.00000
  1745    24.815  0.00000
  1746    24.816  0.00000
  1747    24.817  0.00000
  1748    24.817  0.00000
  1749    24.818  0.00000
  1750    24.829  0.00000
  1751    24.830  0.00000
  1752    24.862  0.00000
  1753    24.865  0.00000
  1754    24.875  0.00000
  1755    24.875  0.00000
  1756    24.876  0.00000
  1757    24.877  0.00000
  1758    24.877  0.00000
  1759    24.877  0.00000
  1760    24.889  0.00000
  1761    24.889  0.00000
  1762    24.903  0.00000
  1763    24.934  0.00000
  1764    25.836  0.00000
  1765    25.838  0.00000
  1766    25.839  0.00000
  1767    25.849  0.00000
  1768    25.850  0.00000
  1769    25.850  0.00000
  1770    25.851  0.00000
  1771    25.851  0.00000
  1772    25.852  0.00000
  1773    25.852  0.00000
  1774    25.861  0.00000
  1775    25.861  0.00000
  1776    25.862  0.00000
  1777    25.862  0.00000
  1778    25.863  0.00000
  1779    25.864  0.00000
  1780    25.865  0.00000
  1781    25.865  0.00000
  1782    25.875  0.00000
  1783    25.876  0.00000
  1784    25.879  0.00000
  1785    25.930  0.00000
  1786    26.281  0.00000
  1787    26.363  0.00000
  1788    26.490  0.00000
  1789    26.511  0.00000
  1790    26.543  0.00000
  1791    26.552  0.00000
  1792    26.554  0.00000
  1793    26.556  0.00000
  1794    26.561  0.00000
  1795    26.563  0.00000
  1796    26.565  0.00000
  1797    26.566  0.00000
  1798    26.567  0.00000
  1799    26.568  0.00000
  1800    26.569  0.00000
  1801    26.569  0.00000
  1802    26.570  0.00000
  1803    26.570  0.00000
  1804    26.574  0.00000
  1805    26.576  0.00000
  1806    26.581  0.00000
  1807    26.583  0.00000
  1808    26.585  0.00000
  1809    26.586  0.00000
  1810    26.602  0.00000
  1811    26.753  0.00000
  1812    26.761  0.00000
  1813    26.763  0.00000
  1814    26.766  0.00000
  1815    26.770  0.00000
  1816    26.777  0.00000
  1817    26.777  0.00000
  1818    26.781  0.00000
  1819    26.785  0.00000
  1820    26.789  0.00000
  1821    26.797  0.00000
  1822    26.797  0.00000
  1823    26.798  0.00000
  1824    26.806  0.00000
  1825    26.808  0.00000
  1826    26.813  0.00000
  1827    26.815  0.00000
  1828    26.818  0.00000
  1829    26.827  0.00000
  1830    26.829  0.00000
  1831    26.832  0.00000
  1832    26.837  0.00000
  1833    26.842  0.00000
  1834    26.926  0.00000
  1835    26.952  0.00000
  1836    27.136  0.00000
  1837    27.140  0.00000
  1838    27.143  0.00000
  1839    27.147  0.00000
  1840    27.151  0.00000
  1841    27.152  0.00000
  1842    27.154  0.00000
  1843    27.154  0.00000
  1844    27.157  0.00000
  1845    27.159  0.00000
  1846    27.165  0.00000
  1847    27.166  0.00000
  1848    27.169  0.00000
  1849    27.170  0.00000
  1850    27.172  0.00000
  1851    27.175  0.00000
  1852    27.176  0.00000
  1853    27.178  0.00000
  1854    27.184  0.00000
  1855    27.187  0.00000
  1856    27.188  0.00000
  1857    27.762  0.00000
  1858    27.768  0.00000
  1859    27.769  0.00000
  1860    27.770  0.00000
  1861    27.773  0.00000
  1862    27.776  0.00000
  1863    27.778  0.00000
  1864    27.779  0.00000
  1865    27.780  0.00000
  1866    27.781  0.00000
  1867    27.782  0.00000
  1868    27.782  0.00000
  1869    27.783  0.00000
  1870    27.785  0.00000
  1871    27.786  0.00000
  1872    27.786  0.00000
  1873    27.796  0.00000
  1874    27.796  0.00000
  1875    27.797  0.00000
  1876    27.798  0.00000
  1877    27.799  0.00000
  1878    27.799  0.00000
  1879    27.800  0.00000
  1880    27.800  0.00000
  1881    27.800  0.00000
  1882    27.800  0.00000
  1883    27.801  0.00000
  1884    27.801  0.00000
  1885    27.801  0.00000
  1886    27.802  0.00000
  1887    27.802  0.00000
  1888    27.802  0.00000
  1889    27.803  0.00000
  1890    27.804  0.00000
  1891    27.804  0.00000
  1892    27.805  0.00000
  1893    27.810  0.00000
  1894    27.815  0.00000
  1895    27.815  0.00000
  1896    27.816  0.00000
  1897    27.832  0.00000
  1898    27.834  0.00000
  1899    27.835  0.00000
  1900    27.835  0.00000
  1901    27.837  0.00000
  1902    27.844  0.00000
  1903    27.844  0.00000
  1904    27.844  0.00000
  1905    30.977  0.00000
  1906    31.065  0.00000
  1907    31.238  0.00000
  1908    31.382  0.00000
  1909    31.391  0.00000
  1910    31.399  0.00000
  1911    31.400  0.00000
  1912    31.402  0.00000
  1913    31.405  0.00000
  1914    31.411  0.00000
  1915    31.416  0.00000
  1916    31.419  0.00000
  1917    31.422  0.00000
  1918    31.423  0.00000
  1919    31.424  0.00000
  1920    31.430  0.00000
  1921    31.434  0.00000
  1922    31.437  0.00000
  1923    31.443  0.00000
  1924    31.445  0.00000
  1925    31.447  0.00000
  1926    31.457  0.00000
  1927    31.457  0.00000
  1928    31.476  0.00000
  1929    32.070  0.00000
  1930    32.159  0.00000
  1931    32.172  0.00000
  1932    32.296  0.00000
  1933    32.301  0.00000
  1934    32.307  0.00000
  1935    32.313  0.00000
  1936    32.313  0.00000
  1937    32.316  0.00000
  1938    32.324  0.00000
  1939    32.329  0.00000
  1940    32.334  0.00000
  1941    32.336  0.00000
  1942    32.337  0.00000
  1943    32.337  0.00000
  1944    32.338  0.00000
  1945    32.347  0.00000
  1946    32.350  0.00000
  1947    32.353  0.00000
  1948    32.358  0.00000
  1949    32.363  0.00000
  1950    32.369  0.00000
  1951    32.371  0.00000
  1952    32.384  0.00000
  1953    35.212  0.00000
  1954    35.217  0.00000
  1955    35.280  0.00000
  1956    35.378  0.00000
  1957    35.381  0.00000
  1958    35.388  0.00000
  1959    35.389  0.00000
  1960    35.391  0.00000
  1961    35.391  0.00000
  1962    35.393  0.00000
  1963    35.393  0.00000
  1964    35.395  0.00000
  1965    35.395  0.00000
  1966    35.396  0.00000
  1967    35.400  0.00000
  1968    35.400  0.00000
  1969    35.401  0.00000
  1970    35.402  0.00000
  1971    35.404  0.00000
  1972    35.404  0.00000
  1973    35.407  0.00000
  1974    35.412  0.00000
  1975    35.413  0.00000
  1976    35.416  0.00000
  1977    35.422  0.00000
  1978    35.433  0.00000
  1979    35.437  0.00000
  1980    35.451  0.00000
  1981    35.452  0.00000
  1982    35.453  0.00000
  1983    35.455  0.00000
  1984    35.456  0.00000
  1985    35.456  0.00000
  1986    35.457  0.00000
  1987    35.458  0.00000
  1988    35.459  0.00000
  1989    35.460  0.00000
  1990    35.462  0.00000
  1991    35.464  0.00000
  1992    35.465  0.00000
  1993    35.467  0.00000
  1994    35.468  0.00000
  1995    35.469  0.00000
  1996    35.470  0.00000
  1997    35.472  0.00000
  1998    35.474  0.00000
  1999    35.476  0.00000
  2000    35.479  0.00000

