 Fermi distribution function

Calculation with static geometry


********************************************************************************
 iSCC Total electronic   Diff electronic      SCC error    
   11   -0.83647410E+02   -0.14210855E-13    0.27444713E-12
********************************************************************************

 Total charge:    -0.00000000

 Atomic gross charges (e)
 Atom           Charge
    1       0.76690795
    2       0.76690795
    3       0.76690795
    4       0.76690795
    5       0.76690795
    6       0.76690795
    7      -0.10082212
    8      -0.10082212
    9      -0.10082212
   10      -0.10082212
   11      -0.10082212
   12      -0.10082212
   13      -0.53382774
   14      -0.53382774
   15      -0.53382774
   16      -0.53382774
   17      -0.53382774
   18      -0.53382774
   19      -0.53382774
   20      -0.53382774
   21      -0.53382774
   22      -0.53382774
   23      -0.53382774
   24      -0.53382774
   25      -0.74043174
   26       0.78746241
   27       0.78746241
   28       0.78746241
   29       0.78746241

COMPONENT = q

Eigenvalues (H) and fillings (e)
       1      -0.93703   2.00000
       2      -0.93473   2.00000
       3      -0.93473   2.00000
       4      -0.93472   2.00000
       5      -0.93472   2.00000
       6      -0.93472   2.00000
       7      -0.88314   2.00000
       8      -0.88314   2.00000
       9      -0.88314   2.00000
      10      -0.88111   2.00000
      11      -0.88111   2.00000
      12      -0.88111   2.00000
      13      -0.85144   2.00000
      14      -0.71789   2.00000
      15      -0.71750   2.00000
      16      -0.71750   2.00000
      17      -0.57103   2.00000
      18      -0.57103   2.00000
      19      -0.57103   2.00000
      20      -0.53790   2.00000
      21      -0.53020   2.00000
      22      -0.53020   2.00000
      23      -0.45497   2.00000
      24      -0.45497   2.00000
      25      -0.45497   2.00000
      26      -0.45022   2.00000
      27      -0.45022   2.00000
      28      -0.45022   2.00000
      29      -0.44686   2.00000
      30      -0.44686   2.00000
      31      -0.44686   2.00000
      32      -0.44077   2.00000
      33      -0.43888   2.00000
      34      -0.43888   2.00000
      35      -0.42065   2.00000
      36      -0.42065   2.00000
      37      -0.42065   2.00000
      38      -0.41589   2.00000
      39      -0.41589   2.00000
      40      -0.41589   2.00000
      41      -0.41365   2.00000
      42      -0.41365   2.00000
      43      -0.41365   2.00000
      44      -0.39520   2.00000
      45      -0.39520   2.00000
      46      -0.39183   2.00000
      47      -0.39183   2.00000
      48      -0.39183   2.00000
      49      -0.39132   2.00000
      50      -0.39132   2.00000
      51      -0.39132   2.00000
      52      -0.38491   2.00000
      53      -0.38214   2.00000
      54      -0.38214   2.00000
      55      -0.37431   2.00000
      56      -0.37431   2.00000
      57      -0.37431   2.00000
      58      -0.37081   2.00000
      59      -0.37081   2.00000
      60      -0.37081   2.00000
      61      -0.36081   2.00000
      62      -0.36081   2.00000
      63      -0.36081   2.00000
      64      -0.34760   2.00000
      65      -0.34760   2.00000
      66      -0.34760   2.00000
      67      -0.33239   2.00000
      68      -0.33239   2.00000
      69      -0.33239   2.00000
      70      -0.30076   2.00000
      71      -0.29985   2.00000
      72      -0.29985   2.00000
      73      -0.29580   2.00000
      74      -0.29580   2.00000
      75      -0.29580   2.00000
      76      -0.29284   2.00000
      77      -0.28228   2.00000
      78      -0.28228   2.00000
      79      -0.28228   2.00000
      80      -0.27657   2.00000
      81      -0.27657   2.00000
      82      -0.27657   2.00000
      83      -0.26555   2.00000
      84      -0.26555   2.00000
      85      -0.26125   2.00000
      86      -0.26125   2.00000
      87      -0.26125   2.00000
      88      -0.05707   0.00000
      89      -0.05707   0.00000
      90      -0.05707   0.00000
      91      -0.05644   0.00000
      92      -0.05644   0.00000
      93      -0.05644   0.00000
      94       0.02175   0.00000
      95       0.05494   0.00000
      96       0.05494   0.00000
      97       0.05494   0.00000
      98       0.22752   0.00000
      99       0.22752   0.00000
     100       0.22752   0.00000
     101       0.24087   0.00000
     102       0.24087   0.00000
     103       0.24671   0.00000
     104       0.24671   0.00000
     105       0.24671   0.00000
     106       0.25990   0.00000
     107       0.25990   0.00000
     108       0.25990   0.00000
     109       0.28299   0.00000
     110       0.28299   0.00000
     111       0.28299   0.00000
     112       0.29440   0.00000
     113       0.32660   0.00000
     114       0.32660   0.00000
     115       0.32660   0.00000
     116       0.56128   0.00000
     117       0.56128   0.00000
     118       0.56128   0.00000
     119       0.67532   0.00000
     120       0.67532   0.00000
     121       0.67872   0.00000
     122       0.74749   0.00000
     123       0.74749   0.00000
     124       0.74787   0.00000
     125       0.74787   0.00000
     126       0.74787   0.00000
     127       0.74983   0.00000
     128       1.05437   0.00000
     129       1.05437   0.00000
     130       1.05437   0.00000
     131       1.05939   0.00000
     132       1.05939   0.00000
     133       1.05939   0.00000
     134       4.73609   0.00000
     135       4.73609   0.00000
     136       4.73609   0.00000

Eigenvalues (eV) and fillings (e)
       1       -25.498   2.00000
       2       -25.435   2.00000
       3       -25.435   2.00000
       4       -25.435   2.00000
       5       -25.435   2.00000
       6       -25.435   2.00000
       7       -24.031   2.00000
       8       -24.031   2.00000
       9       -24.031   2.00000
      10       -23.976   2.00000
      11       -23.976   2.00000
      12       -23.976   2.00000
      13       -23.169   2.00000
      14       -19.535   2.00000
      15       -19.524   2.00000
      16       -19.524   2.00000
      17       -15.538   2.00000
      18       -15.538   2.00000
      19       -15.538   2.00000
      20       -14.637   2.00000
      21       -14.427   2.00000
      22       -14.427   2.00000
      23       -12.380   2.00000
      24       -12.380   2.00000
      25       -12.380   2.00000
      26       -12.251   2.00000
      27       -12.251   2.00000
      28       -12.251   2.00000
      29       -12.160   2.00000
      30       -12.160   2.00000
      31       -12.160   2.00000
      32       -11.994   2.00000
      33       -11.942   2.00000
      34       -11.942   2.00000
      35       -11.446   2.00000
      36       -11.446   2.00000
      37       -11.446   2.00000
      38       -11.317   2.00000
      39       -11.317   2.00000
      40       -11.317   2.00000
      41       -11.256   2.00000
      42       -11.256   2.00000
      43       -11.256   2.00000
      44       -10.754   2.00000
      45       -10.754   2.00000
      46       -10.662   2.00000
      47       -10.662   2.00000
      48       -10.662   2.00000
      49       -10.648   2.00000
      50       -10.648   2.00000
      51       -10.648   2.00000
      52       -10.474   2.00000
      53       -10.399   2.00000
      54       -10.399   2.00000
      55       -10.185   2.00000
      56       -10.185   2.00000
      57       -10.185   2.00000
      58       -10.090   2.00000
      59       -10.090   2.00000
      60       -10.090   2.00000
      61        -9.818   2.00000
      62        -9.818   2.00000
      63        -9.818   2.00000
      64        -9.459   2.00000
      65        -9.459   2.00000
      66        -9.459   2.00000
      67        -9.045   2.00000
      68        -9.045   2.00000
      69        -9.045   2.00000
      70        -8.184   2.00000
      71        -8.159   2.00000
      72        -8.159   2.00000
      73        -8.049   2.00000
      74        -8.049   2.00000
      75        -8.049   2.00000
      76        -7.968   2.00000
      77        -7.681   2.00000
      78        -7.681   2.00000
      79        -7.681   2.00000
      80        -7.526   2.00000
      81        -7.526   2.00000
      82        -7.526   2.00000
      83        -7.226   2.00000
      84        -7.226   2.00000
      85        -7.109   2.00000
      86        -7.109   2.00000
      87        -7.109   2.00000
      88        -1.553   0.00000
      89        -1.553   0.00000
      90        -1.553   0.00000
      91        -1.536   0.00000
      92        -1.536   0.00000
      93        -1.536   0.00000
      94         0.592   0.00000
      95         1.495   0.00000
      96         1.495   0.00000
      97         1.495   0.00000
      98         6.191   0.00000
      99         6.191   0.00000
     100         6.191   0.00000
     101         6.554   0.00000
     102         6.554   0.00000
     103         6.713   0.00000
     104         6.713   0.00000
     105         6.713   0.00000
     106         7.072   0.00000
     107         7.072   0.00000
     108         7.072   0.00000
     109         7.700   0.00000
     110         7.700   0.00000
     111         7.700   0.00000
     112         8.011   0.00000
     113         8.887   0.00000
     114         8.887   0.00000
     115         8.887   0.00000
     116        15.273   0.00000
     117        15.273   0.00000
     118        15.273   0.00000
     119        18.376   0.00000
     120        18.376   0.00000
     121        18.469   0.00000
     122        20.340   0.00000
     123        20.340   0.00000
     124        20.351   0.00000
     125        20.351   0.00000
     126        20.351   0.00000
     127        20.404   0.00000
     128        28.691   0.00000
     129        28.691   0.00000
     130        28.691   0.00000
     131        28.828   0.00000
     132        28.828   0.00000
     133        28.828   0.00000
     134       128.876   0.00000
     135       128.876   0.00000
     136       128.876   0.00000

Nr. of electrons (up):    174.00000000
Atom populations (up)
 Atom       Population
    1       3.23309205
    2       3.23309205
    3       3.23309205
    4       3.23309205
    5       3.23309205
    6       3.23309205
    7       4.10082212
    8       4.10082212
    9       4.10082212
   10       4.10082212
   11       4.10082212
   12       4.10082212
   13       6.53382774
   14       6.53382774
   15       6.53382774
   16       6.53382774
   17       6.53382774
   18       6.53382774
   19       6.53382774
   20       6.53382774
   21       6.53382774
   22       6.53382774
   23       6.53382774
   24       6.53382774
   25       6.74043174
   26      11.21253759
   27      11.21253759
   28      11.21253759
   29      11.21253759

l-shell populations (up)
 Atom Sh.   l       Population
    1   1   0       0.99467859
    1   2   1       2.23841346
    2   1   0       0.99467859
    2   2   1       2.23841346
    3   1   0       0.99467859
    3   2   1       2.23841346
    4   1   0       0.99467859
    4   2   1       2.23841346
    5   1   0       0.99467859
    5   2   1       2.23841346
    6   1   0       0.99467859
    6   2   1       2.23841346
    7   1   0       1.15002610
    7   2   1       2.95079602
    8   1   0       1.15002610
    8   2   1       2.95079602
    9   1   0       1.15002610
    9   2   1       2.95079602
   10   1   0       1.15002610
   10   2   1       2.95079602
   11   1   0       1.15002610
   11   2   1       2.95079602
   12   1   0       1.15002610
   12   2   1       2.95079602
   13   1   0       1.74981521
   13   2   1       4.78401253
   14   1   0       1.74981521
   14   2   1       4.78401253
   15   1   0       1.74981521
   15   2   1       4.78401253
   16   1   0       1.74981521
   16   2   1       4.78401253
   17   1   0       1.74981521
   17   2   1       4.78401253
   18   1   0       1.74981521
   18   2   1       4.78401253
   19   1   0       1.74981521
   19   2   1       4.78401253
   20   1   0       1.74981521
   20   2   1       4.78401253
   21   1   0       1.74981521
   21   2   1       4.78401253
   22   1   0       1.74981521
   22   2   1       4.78401253
   23   1   0       1.74981521
   23   2   1       4.78401253
   24   1   0       1.74981521
   24   2   1       4.78401253
   25   1   0       1.85380453
   25   2   1       4.88662721
   26   1   0       0.54511714
   26   2   1       0.70688820
   26   3   2       9.96053225
   27   1   0       0.54511714
   27   2   1       0.70688820
   27   3   2       9.96053225
   28   1   0       0.54511714
   28   2   1       0.70688820
   28   3   2       9.96053225
   29   1   0       0.54511714
   29   2   1       0.70688820
   29   3   2       9.96053225

Orbital populations (up)
 Atom Sh.   l   m       Population
    1   1   0   0       0.99467859
    1   2   1  -1       0.71737956
    1   2   1   0       0.80365434
    1   2   1   1       0.71737956
    2   1   0   0       0.99467859
    2   2   1  -1       0.71737956
    2   2   1   0       0.71737956
    2   2   1   1       0.80365434
    3   1   0   0       0.99467859
    3   2   1  -1       0.80365434
    3   2   1   0       0.71737956
    3   2   1   1       0.71737956
    4   1   0   0       0.99467859
    4   2   1  -1       0.71737956
    4   2   1   0       0.80365434
    4   2   1   1       0.71737956
    5   1   0   0       0.99467859
    5   2   1  -1       0.71737956
    5   2   1   0       0.71737956
    5   2   1   1       0.80365434
    6   1   0   0       0.99467859
    6   2   1  -1       0.80365434
    6   2   1   0       0.71737956
    6   2   1   1       0.71737956
    7   1   0   0       1.15002610
    7   2   1  -1       0.99330552
    7   2   1   0       0.96418498
    7   2   1   1       0.99330552
    8   1   0   0       1.15002610
    8   2   1  -1       0.99330552
    8   2   1   0       0.99330552
    8   2   1   1       0.96418498
    9   1   0   0       1.15002610
    9   2   1  -1       0.96418498
    9   2   1   0       0.99330552
    9   2   1   1       0.99330552
   10   1   0   0       1.15002610
   10   2   1  -1       0.99330552
   10   2   1   0       0.96418498
   10   2   1   1       0.99330552
   11   1   0   0       1.15002610
   11   2   1  -1       0.99330552
   11   2   1   0       0.99330552
   11   2   1   1       0.96418498
   12   1   0   0       1.15002610
   12   2   1  -1       0.96418498
   12   2   1   0       0.99330552
   12   2   1   1       0.99330552
   13   1   0   0       1.74981521
   13   2   1  -1       1.57119389
   13   2   1   0       1.64162476
   13   2   1   1       1.57119389
   14   1   0   0       1.74981521
   14   2   1  -1       1.57119389
   14   2   1   0       1.57119389
   14   2   1   1       1.64162476
   15   1   0   0       1.74981521
   15   2   1  -1       1.64162476
   15   2   1   0       1.57119389
   15   2   1   1       1.57119389
   16   1   0   0       1.74981521
   16   2   1  -1       1.57119389
   16   2   1   0       1.64162476
   16   2   1   1       1.57119389
   17   1   0   0       1.74981521
   17   2   1  -1       1.64162476
   17   2   1   0       1.57119389
   17   2   1   1       1.57119389
   18   1   0   0       1.74981521
   18   2   1  -1       1.57119389
   18   2   1   0       1.57119389
   18   2   1   1       1.64162476
   19   1   0   0       1.74981521
   19   2   1  -1       1.57119389
   19   2   1   0       1.64162476
   19   2   1   1       1.57119389
   20   1   0   0       1.74981521
   20   2   1  -1       1.57119389
   20   2   1   0       1.57119389
   20   2   1   1       1.64162476
   21   1   0   0       1.74981521
   21   2   1  -1       1.64162476
   21   2   1   0       1.57119389
   21   2   1   1       1.57119389
   22   1   0   0       1.74981521
   22   2   1  -1       1.57119389
   22   2   1   0       1.64162476
   22   2   1   1       1.57119389
   23   1   0   0       1.74981521
   23   2   1  -1       1.64162476
   23   2   1   0       1.57119389
   23   2   1   1       1.57119389
   24   1   0   0       1.74981521
   24   2   1  -1       1.57119389
   24   2   1   0       1.57119389
   24   2   1   1       1.64162476
   25   1   0   0       1.85380453
   25   2   1  -1       1.62887574
   25   2   1   0       1.62887574
   25   2   1   1       1.62887574
   26   1   0   0       0.54511714
   26   2   1  -1       0.23562940
   26   2   1   0       0.23562940
   26   2   1   1       0.23562940
   26   3   2  -2       1.99420475
   26   3   2  -1       1.99420475
   26   3   2   0       1.98895900
   26   3   2   1       1.99420475
   26   3   2   2       1.98895900
   27   1   0   0       0.54511714
   27   2   1  -1       0.23562940
   27   2   1   0       0.23562940
   27   2   1   1       0.23562940
   27   3   2  -2       1.99420475
   27   3   2  -1       1.99420475
   27   3   2   0       1.98895900
   27   3   2   1       1.99420475
   27   3   2   2       1.98895900
   28   1   0   0       0.54511714
   28   2   1  -1       0.23562940
   28   2   1   0       0.23562940
   28   2   1   1       0.23562940
   28   3   2  -2       1.99420475
   28   3   2  -1       1.99420475
   28   3   2   0       1.98895900
   28   3   2   1       1.99420475
   28   3   2   2       1.98895900
   29   1   0   0       0.54511714
   29   2   1  -1       0.23562940
   29   2   1   0       0.23562940
   29   2   1   1       0.23562940
   29   3   2  -2       1.99420475
   29   3   2  -1       1.99420475
   29   3   2   0       1.98895900
   29   3   2   1       1.99420475
   29   3   2   2       1.98895900

Fermi level:                        -0.1591569897 H           -4.3309 eV
Band energy:                       -82.1263704648 H        -2234.7722 eV
TS:                                  0.0000000000 H            0.0000 eV
Band free energy (E-TS):           -82.1263704648 H        -2234.7722 eV
Extrapolated E(0K):                -82.1263704648 H        -2234.7722 eV
Input / Output electrons (q):    174.00000000    174.00000000

Energy H0:                         -83.8335486259 H        -2281.2269 eV
Energy SCC:                          0.2057925667 H            5.5999 eV
Total Electronic energy:           -83.6474100071 H        -2276.1618 eV
Repulsive energy:                    2.8529677009 H           77.6332 eV
Dispersion energy:                  -0.0295614737 H           -0.8044 eV
Total energy:                      -80.8240037799 H        -2199.3330 eV
Total Mermin free energy:          -80.8240037799 H        -2199.3330 eV

SCC converged

Total Forces
      0.000000000000      0.000000000000     -0.005282555970
     -0.005282555970     -0.000000000001     -0.000000000001
     -0.000000000001     -0.005282555970     -0.000000000001
      0.000000000000      0.000000000000      0.005282555971
      0.005282555971      0.000000000001      0.000000000001
      0.000000000001      0.005282555971      0.000000000001
     -0.000000000000     -0.000000000000     -0.854923946925
     -0.854923946925     -0.000000000000     -0.000000000000
     -0.000000000000     -0.854923946925     -0.000000000000
     -0.000000000000     -0.000000000000      0.854923946925
      0.854923946925     -0.000000000000     -0.000000000000
      0.000000000000      0.854923946925      0.000000000000
     -0.003632948550     -0.003632948550     -0.014492145978
     -0.014492145978     -0.003632948550     -0.003632948550
     -0.003632948550     -0.014492145977     -0.003632948550
      0.003632948551     -0.003632948551      0.014492145977
      0.003632948551     -0.014492145977      0.003632948551
      0.014492145977     -0.003632948552      0.003632948551
     -0.003632948551      0.003632948551      0.014492145977
     -0.014492145977      0.003632948551      0.003632948551
     -0.003632948552      0.014492145977      0.003632948551
      0.003632948550      0.003632948550     -0.014492145977
      0.003632948551      0.014492145977     -0.003632948552
      0.014492145977      0.003632948551     -0.003632948552
      0.000000000000      0.000000000000     -0.000000000000
     -0.004594586022     -0.004594586022      0.004594586022
      0.004594586022     -0.004594586022     -0.004594586022
     -0.004594586022      0.004594586022     -0.004594586022
      0.004594586022      0.004594586022      0.004594586022

Total stress tensor
      0.000204135268     -0.000000000000     -0.000000000000
     -0.000000000000      0.000204135268     -0.000000000000
      0.000000000000      0.000000000000      0.000204135268

Total lattice derivs
     -0.090076767238      0.000000000000      0.000000000000
      0.000000000000     -0.090076767238      0.000000000000
     -0.000000000000     -0.000000000000     -0.090076767238

Maximal derivative component:        0.854924E+00 au

Volume:                              0.926920E+04 au^3
Pressure:                            0.204135E-03 au     0.600586E+10 Pa


